PWD /home/mikeyny/Documents/projects/report/src
INPUT /etc/texmf/web2c/texmf.cnf
INPUT /usr/share/texmf/web2c/texmf.cnf
INPUT /usr/share/texlive/texmf-dist/web2c/texmf.cnf
INPUT /var/lib/texmf/web2c/pdftex/pdflatex.fmt
INPUT /home/mikeyny/Documents/projects/report/src/main.tex
OUTPUT ../dist/main.log
INPUT /usr/share/texlive/texmf-dist/tex/latex/base/article.cls
INPUT /usr/share/texlive/texmf-dist/tex/latex/base/article.cls
INPUT /usr/share/texlive/texmf-dist/tex/latex/base/size12.clo
INPUT /usr/share/texlive/texmf-dist/tex/latex/base/size12.clo
INPUT /usr/share/texlive/texmf-dist/fonts/map/fontname/texfonts.map
INPUT /usr/share/texlive/texmf-dist/fonts/tfm/public/cm/cmr12.tfm
INPUT /usr/share/texlive/texmf-dist/tex/latex/psnfss/times.sty
INPUT /usr/share/texlive/texmf-dist/tex/latex/psnfss/times.sty
INPUT /usr/share/texlive/texmf-dist/tex/latex/setspace/setspace.sty
INPUT /usr/share/texlive/texmf-dist/tex/latex/setspace/setspace.sty
INPUT /usr/share/texlive/texmf-dist/tex/latex/amsmath/amsmath.sty
INPUT /usr/share/texlive/texmf-dist/tex/latex/amsmath/amsmath.sty
INPUT /usr/share/texlive/texmf-dist/tex/latex/amsmath/amstext.sty
INPUT /usr/share/texlive/texmf-dist/tex/latex/amsmath/amstext.sty
INPUT /usr/share/texlive/texmf-dist/tex/latex/amsmath/amsgen.sty
INPUT /usr/share/texlive/texmf-dist/tex/latex/amsmath/amsgen.sty
INPUT /usr/share/texlive/texmf-dist/tex/latex/amsmath/amsbsy.sty
INPUT /usr/share/texlive/texmf-dist/tex/latex/amsmath/amsbsy.sty
INPUT /usr/share/texlive/texmf-dist/tex/latex/amsmath/amsopn.sty
INPUT /usr/share/texlive/texmf-dist/tex/latex/amsmath/amsopn.sty
INPUT /usr/share/texlive/texmf-dist/tex/latex/base/latexsym.sty
INPUT /usr/share/texlive/texmf-dist/tex/latex/base/latexsym.sty
INPUT /usr/share/texlive/texmf-dist/tex/latex/amsfonts/amsfonts.sty
INPUT /usr/share/texlive/texmf-dist/tex/latex/amsfonts/amsfonts.sty
INPUT /usr/share/texlive/texmf-dist/tex/generic/ulem/ulem.sty
INPUT /usr/share/texlive/texmf-dist/tex/generic/ulem/ulem.sty
INPUT /usr/share/texlive/texmf-dist/fonts/tfm/public/latex-fonts/lasy6.tfm
INPUT /usr/share/texlive/texmf-dist/tex/latex/tools/array.sty
INPUT /usr/share/texlive/texmf-dist/tex/latex/tools/array.sty
INPUT /usr/share/texlive/texmf-dist/tex/latex/amsfonts/amssymb.sty
INPUT /usr/share/texlive/texmf-dist/tex/latex/amsfonts/amssymb.sty
INPUT /usr/share/texlive/texmf-dist/tex/latex/graphics/graphicx.sty
INPUT /usr/share/texlive/texmf-dist/tex/latex/graphics/graphicx.sty
INPUT /usr/share/texlive/texmf-dist/tex/latex/graphics/keyval.sty
INPUT /usr/share/texlive/texmf-dist/tex/latex/graphics/keyval.sty
INPUT /usr/share/texlive/texmf-dist/tex/latex/graphics/graphics.sty
INPUT /usr/share/texlive/texmf-dist/tex/latex/graphics/graphics.sty
INPUT /usr/share/texlive/texmf-dist/tex/latex/graphics/trig.sty
INPUT /usr/share/texlive/texmf-dist/tex/latex/graphics/trig.sty
INPUT /usr/share/texlive/texmf-dist/tex/latex/latexconfig/graphics.cfg
INPUT /usr/share/texlive/texmf-dist/tex/latex/latexconfig/graphics.cfg
INPUT /usr/share/texlive/texmf-dist/tex/latex/pdftex-def/pdftex.def
INPUT /usr/share/texlive/texmf-dist/tex/latex/pdftex-def/pdftex.def
INPUT /usr/share/texlive/texmf-dist/tex/generic/oberdiek/infwarerr.sty
INPUT /usr/share/texlive/texmf-dist/tex/generic/oberdiek/infwarerr.sty
INPUT /usr/share/texlive/texmf-dist/tex/generic/oberdiek/ltxcmds.sty
INPUT /usr/share/texlive/texmf-dist/tex/generic/oberdiek/ltxcmds.sty
INPUT /usr/share/texlive/texmf-dist/tex/latex/subfig/subfig.sty
INPUT /usr/share/texlive/texmf-dist/tex/latex/subfig/subfig.sty
INPUT /usr/share/texlive/texmf-dist/tex/latex/caption/caption.sty
INPUT /usr/share/texlive/texmf-dist/tex/latex/caption/caption.sty
INPUT /usr/share/texlive/texmf-dist/tex/latex/caption/caption3.sty
INPUT /usr/share/texlive/texmf-dist/tex/latex/caption/caption3.sty
INPUT /usr/share/texlive/texmf-dist/tex/latex/wrapfig/wrapfig.sty
INPUT /usr/share/texlive/texmf-dist/tex/latex/wrapfig/wrapfig.sty
INPUT /usr/share/texlive/texmf-dist/tex/latex/wasysym/wasysym.sty
INPUT /usr/share/texlive/texmf-dist/tex/latex/wasysym/wasysym.sty
INPUT /usr/share/texlive/texmf-dist/tex/latex/enumitem/enumitem.sty
INPUT /usr/share/texlive/texmf-dist/tex/latex/enumitem/enumitem.sty
INPUT /usr/share/texlive/texmf-dist/tex/latex/adjustbox/adjustbox.sty
INPUT /usr/share/texlive/texmf-dist/tex/latex/adjustbox/adjustbox.sty
INPUT /usr/share/texlive/texmf-dist/tex/latex/xkeyval/xkeyval.sty
INPUT /usr/share/texlive/texmf-dist/tex/latex/xkeyval/xkeyval.sty
INPUT /usr/share/texlive/texmf-dist/tex/generic/xkeyval/xkeyval.tex
INPUT /usr/share/texlive/texmf-dist/tex/generic/xkeyval/xkvutils.tex
INPUT /usr/share/texlive/texmf-dist/tex/latex/adjustbox/adjcalc.sty
INPUT /usr/share/texlive/texmf-dist/tex/latex/adjustbox/adjcalc.sty
INPUT /usr/share/texlive/texmf-dist/tex/latex/adjustbox/trimclip.sty
INPUT /usr/share/texlive/texmf-dist/tex/latex/adjustbox/trimclip.sty
INPUT /usr/share/texlive/texmf-dist/tex/latex/collectbox/collectbox.sty
INPUT /usr/share/texlive/texmf-dist/tex/latex/collectbox/collectbox.sty
INPUT /usr/share/texlive/texmf-dist/tex/latex/adjustbox/tc-pdftex.def
INPUT /usr/share/texlive/texmf-dist/tex/latex/adjustbox/tc-pdftex.def
INPUT /usr/share/texlive/texmf-dist/tex/latex/ifoddpage/ifoddpage.sty
INPUT /usr/share/texlive/texmf-dist/tex/latex/ifoddpage/ifoddpage.sty
INPUT /usr/share/texlive/texmf-dist/tex/latex/ifoddpage/ifoddpage.sty
INPUT /usr/share/texlive/texmf-dist/tex/latex/varwidth/varwidth.sty
INPUT /usr/share/texlive/texmf-dist/tex/latex/varwidth/varwidth.sty
INPUT /usr/share/texlive/texmf-dist/tex/latex/varwidth/varwidth.sty
INPUT /usr/share/texlive/texmf-dist/tex/latex/ms/ragged2e.sty
INPUT /usr/share/texlive/texmf-dist/tex/latex/ms/ragged2e.sty
INPUT /usr/share/texlive/texmf-dist/tex/latex/ms/everysel.sty
INPUT /usr/share/texlive/texmf-dist/tex/latex/ms/everysel.sty
INPUT /usr/share/texlive/texmf-dist/tex/latex/xcolor/xcolor.sty
INPUT /usr/share/texlive/texmf-dist/tex/latex/xcolor/xcolor.sty
INPUT /usr/share/texlive/texmf-dist/tex/latex/latexconfig/color.cfg
INPUT /usr/share/texlive/texmf-dist/tex/latex/latexconfig/color.cfg
INPUT /usr/share/texlive/texmf-dist/tex/latex/colortbl/colortbl.sty
INPUT /usr/share/texlive/texmf-dist/tex/latex/colortbl/colortbl.sty
INPUT /usr/share/texlive/texmf-dist/tex/latex/xcolor/svgnam.def
INPUT /usr/share/texlive/texmf-dist/tex/latex/xcolor/svgnam.def
INPUT /usr/share/texlive/texmf-dist/tex/latex/pgf/frontendlayer/tikz.sty
INPUT /usr/share/texlive/texmf-dist/tex/latex/pgf/frontendlayer/tikz.sty
INPUT /usr/share/texlive/texmf-dist/tex/latex/pgf/basiclayer/pgf.sty
INPUT /usr/share/texlive/texmf-dist/tex/latex/pgf/basiclayer/pgf.sty
INPUT /usr/share/texlive/texmf-dist/tex/latex/pgf/utilities/pgfrcs.sty
INPUT /usr/share/texlive/texmf-dist/tex/latex/pgf/utilities/pgfrcs.sty
INPUT /usr/share/texlive/texmf-dist/tex/generic/pgf/utilities/pgfutil-common.tex
INPUT /usr/share/texlive/texmf-dist/tex/generic/pgf/utilities/pgfutil-common-lists.tex
INPUT /usr/share/texlive/texmf-dist/tex/generic/pgf/utilities/pgfutil-latex.def
INPUT /usr/share/texlive/texmf-dist/tex/latex/ms/everyshi.sty
INPUT /usr/share/texlive/texmf-dist/tex/latex/ms/everyshi.sty
INPUT /usr/share/texlive/texmf-dist/tex/generic/pgf/utilities/pgfrcs.code.tex
INPUT /usr/share/texlive/texmf-dist/tex/generic/pgf/utilities/pgfrcs.code.tex
INPUT /usr/share/texlive/texmf-dist/tex/latex/pgf/basiclayer/pgfcore.sty
INPUT /usr/share/texlive/texmf-dist/tex/latex/pgf/basiclayer/pgfcore.sty
INPUT /usr/share/texlive/texmf-dist/tex/latex/pgf/systemlayer/pgfsys.sty
INPUT /usr/share/texlive/texmf-dist/tex/latex/pgf/systemlayer/pgfsys.sty
INPUT /usr/share/texlive/texmf-dist/tex/generic/pgf/systemlayer/pgfsys.code.tex
INPUT /usr/share/texlive/texmf-dist/tex/generic/pgf/systemlayer/pgfsys.code.tex
INPUT /usr/share/texlive/texmf-dist/tex/generic/pgf/utilities/pgfkeys.code.tex
INPUT /usr/share/texlive/texmf-dist/tex/generic/pgf/utilities/pgfkeysfiltered.code.tex
INPUT /usr/share/texlive/texmf-dist/tex/generic/pgf/systemlayer/pgf.cfg
INPUT /usr/share/texlive/texmf-dist/tex/generic/pgf/systemlayer/pgfsys-pdftex.def
INPUT /usr/share/texlive/texmf-dist/tex/generic/pgf/systemlayer/pgfsys-pdftex.def
INPUT /usr/share/texlive/texmf-dist/tex/generic/pgf/systemlayer/pgfsys-common-pdf.def
INPUT /usr/share/texlive/texmf-dist/tex/generic/pgf/systemlayer/pgfsyssoftpath.code.tex
INPUT /usr/share/texlive/texmf-dist/tex/generic/pgf/systemlayer/pgfsyssoftpath.code.tex
INPUT /usr/share/texlive/texmf-dist/tex/generic/pgf/systemlayer/pgfsysprotocol.code.tex
INPUT /usr/share/texlive/texmf-dist/tex/generic/pgf/systemlayer/pgfsysprotocol.code.tex
INPUT /usr/share/texlive/texmf-dist/tex/generic/pgf/basiclayer/pgfcore.code.tex
INPUT /usr/share/texlive/texmf-dist/tex/generic/pgf/basiclayer/pgfcore.code.tex
INPUT /usr/share/texlive/texmf-dist/tex/generic/pgf/math/pgfmath.code.tex
INPUT /usr/share/texlive/texmf-dist/tex/generic/pgf/math/pgfmathcalc.code.tex
INPUT /usr/share/texlive/texmf-dist/tex/generic/pgf/math/pgfmathutil.code.tex
INPUT /usr/share/texlive/texmf-dist/tex/generic/pgf/math/pgfmathparser.code.tex
INPUT /usr/share/texlive/texmf-dist/tex/generic/pgf/math/pgfmathfunctions.code.tex
INPUT /usr/share/texlive/texmf-dist/tex/generic/pgf/math/pgfmathfunctions.basic.code.tex
INPUT /usr/share/texlive/texmf-dist/tex/generic/pgf/math/pgfmathfunctions.trigonometric.code.tex
INPUT /usr/share/texlive/texmf-dist/tex/generic/pgf/math/pgfmathfunctions.random.code.tex
INPUT /usr/share/texlive/texmf-dist/tex/generic/pgf/math/pgfmathfunctions.comparison.code.tex
INPUT /usr/share/texlive/texmf-dist/tex/generic/pgf/math/pgfmathfunctions.base.code.tex
INPUT /usr/share/texlive/texmf-dist/tex/generic/pgf/math/pgfmathfunctions.round.code.tex
INPUT /usr/share/texlive/texmf-dist/tex/generic/pgf/math/pgfmathfunctions.misc.code.tex
INPUT /usr/share/texlive/texmf-dist/tex/generic/pgf/math/pgfmathfunctions.integerarithmetics.code.tex
INPUT /usr/share/texlive/texmf-dist/tex/generic/pgf/math/pgfmathfloat.code.tex
INPUT /usr/share/texlive/texmf-dist/tex/generic/pgf/basiclayer/pgfcorepoints.code.tex
INPUT /usr/share/texlive/texmf-dist/tex/generic/pgf/basiclayer/pgfcorepathconstruct.code.tex
INPUT /usr/share/texlive/texmf-dist/tex/generic/pgf/basiclayer/pgfcorepathusage.code.tex
INPUT /usr/share/texlive/texmf-dist/tex/generic/pgf/basiclayer/pgfcorescopes.code.tex
INPUT /usr/share/texlive/texmf-dist/tex/generic/pgf/basiclayer/pgfcoregraphicstate.code.tex
INPUT /usr/share/texlive/texmf-dist/tex/generic/pgf/basiclayer/pgfcoretransformations.code.tex
INPUT /usr/share/texlive/texmf-dist/tex/generic/pgf/basiclayer/pgfcorequick.code.tex
INPUT /usr/share/texlive/texmf-dist/tex/generic/pgf/basiclayer/pgfcoreobjects.code.tex
INPUT /usr/share/texlive/texmf-dist/tex/generic/pgf/basiclayer/pgfcorepathprocessing.code.tex
INPUT /usr/share/texlive/texmf-dist/tex/generic/pgf/basiclayer/pgfcorearrows.code.tex
INPUT /usr/share/texlive/texmf-dist/tex/generic/pgf/basiclayer/pgfcoreshade.code.tex
INPUT /usr/share/texlive/texmf-dist/tex/generic/pgf/basiclayer/pgfcoreimage.code.tex
INPUT /usr/share/texlive/texmf-dist/tex/generic/pgf/basiclayer/pgfcoreexternal.code.tex
INPUT /usr/share/texlive/texmf-dist/tex/generic/pgf/basiclayer/pgfcorelayers.code.tex
INPUT /usr/share/texlive/texmf-dist/tex/generic/pgf/basiclayer/pgfcoretransparency.code.tex
INPUT /usr/share/texlive/texmf-dist/tex/generic/pgf/basiclayer/pgfcorepatterns.code.tex
INPUT /usr/share/texlive/texmf-dist/tex/generic/pgf/modules/pgfmoduleshapes.code.tex
INPUT /usr/share/texlive/texmf-dist/tex/generic/pgf/modules/pgfmoduleplot.code.tex
INPUT /usr/share/texlive/texmf-dist/tex/latex/pgf/compatibility/pgfcomp-version-0-65.sty
INPUT /usr/share/texlive/texmf-dist/tex/latex/pgf/compatibility/pgfcomp-version-0-65.sty
INPUT /usr/share/texlive/texmf-dist/tex/latex/pgf/compatibility/pgfcomp-version-1-18.sty
INPUT /usr/share/texlive/texmf-dist/tex/latex/pgf/compatibility/pgfcomp-version-1-18.sty
INPUT /usr/share/texlive/texmf-dist/tex/latex/pgf/utilities/pgffor.sty
INPUT /usr/share/texlive/texmf-dist/tex/latex/pgf/utilities/pgffor.sty
INPUT /usr/share/texlive/texmf-dist/tex/latex/pgf/utilities/pgfkeys.sty
INPUT /usr/share/texlive/texmf-dist/tex/latex/pgf/utilities/pgfkeys.sty
INPUT /usr/share/texlive/texmf-dist/tex/generic/pgf/utilities/pgfkeys.code.tex
INPUT /usr/share/texlive/texmf-dist/tex/generic/pgf/utilities/pgfkeys.code.tex
INPUT /usr/share/texlive/texmf-dist/tex/latex/pgf/math/pgfmath.sty
INPUT /usr/share/texlive/texmf-dist/tex/latex/pgf/math/pgfmath.sty
INPUT /usr/share/texlive/texmf-dist/tex/generic/pgf/math/pgfmath.code.tex
INPUT /usr/share/texlive/texmf-dist/tex/generic/pgf/math/pgfmath.code.tex
INPUT /usr/share/texlive/texmf-dist/tex/generic/pgf/utilities/pgffor.code.tex
INPUT /usr/share/texlive/texmf-dist/tex/generic/pgf/utilities/pgffor.code.tex
INPUT /usr/share/texlive/texmf-dist/tex/generic/pgf/math/pgfmath.code.tex
INPUT /usr/share/texlive/texmf-dist/tex/generic/pgf/frontendlayer/tikz/tikz.code.tex
INPUT /usr/share/texlive/texmf-dist/tex/generic/pgf/frontendlayer/tikz/tikz.code.tex
INPUT /usr/share/texlive/texmf-dist/tex/generic/pgf/libraries/pgflibraryplothandlers.code.tex
INPUT /usr/share/texlive/texmf-dist/tex/generic/pgf/libraries/pgflibraryplothandlers.code.tex
INPUT /usr/share/texlive/texmf-dist/tex/generic/pgf/modules/pgfmodulematrix.code.tex
INPUT /usr/share/texlive/texmf-dist/tex/generic/pgf/frontendlayer/tikz/libraries/tikzlibrarytopaths.code.tex
INPUT /usr/share/texlive/texmf-dist/tex/generic/pgf/frontendlayer/tikz/libraries/tikzlibrarytopaths.code.tex
INPUT /usr/share/texlive/texmf-dist/tex/latex/tools/longtable.sty
INPUT /usr/share/texlive/texmf-dist/tex/latex/tools/longtable.sty
INPUT /usr/share/texlive/texmf-dist/tex/latex/changepage/changepage.sty
INPUT /usr/share/texlive/texmf-dist/tex/latex/changepage/changepage.sty
INPUT /usr/share/texlive/texmf-dist/tex/latex/tools/hhline.sty
INPUT /usr/share/texlive/texmf-dist/tex/latex/tools/hhline.sty
INPUT /usr/share/texlive/texmf-dist/tex/latex/tools/multicol.sty
INPUT /usr/share/texlive/texmf-dist/tex/latex/tools/multicol.sty
INPUT /usr/share/texlive/texmf-dist/tex/latex/tabto-ltx/tabto.sty
INPUT /usr/share/texlive/texmf-dist/tex/latex/tabto-ltx/tabto.sty
INPUT /usr/share/texlive/texmf-dist/tex/latex/float/float.sty
INPUT /usr/share/texlive/texmf-dist/tex/latex/float/float.sty
INPUT /usr/share/texlive/texmf-dist/tex/latex/multirow/multirow.sty
INPUT /usr/share/texlive/texmf-dist/tex/latex/multirow/multirow.sty
INPUT /usr/share/texlive/texmf-dist/tex/latex/makecell/makecell.sty
INPUT /usr/share/texlive/texmf-dist/tex/latex/makecell/makecell.sty
INPUT /usr/share/texlive/texmf-dist/tex/latex/fancyhdr/fancyhdr.sty
INPUT /usr/share/texlive/texmf-dist/tex/latex/fancyhdr/fancyhdr.sty
INPUT /usr/share/texlive/texmf-dist/tex/latex/appendix/appendix.sty
INPUT /usr/share/texlive/texmf-dist/tex/latex/appendix/appendix.sty
INPUT /usr/share/texlive/texmf-dist/tex/latex/geometry/geometry.sty
INPUT /usr/share/texlive/texmf-dist/tex/latex/geometry/geometry.sty
INPUT /usr/share/texlive/texmf-dist/tex/generic/oberdiek/ifpdf.sty
INPUT /usr/share/texlive/texmf-dist/tex/generic/oberdiek/ifpdf.sty
INPUT /usr/share/texlive/texmf-dist/tex/generic/oberdiek/ifvtex.sty
INPUT /usr/share/texlive/texmf-dist/tex/generic/oberdiek/ifvtex.sty
INPUT /usr/share/texlive/texmf-dist/tex/generic/ifxetex/ifxetex.sty
INPUT /usr/share/texlive/texmf-dist/tex/generic/ifxetex/ifxetex.sty
INPUT /usr/share/texlive/texmf-dist/tex/latex/base/inputenc.sty
INPUT /usr/share/texlive/texmf-dist/tex/latex/base/inputenc.sty
INPUT /usr/share/texlive/texmf-dist/tex/latex/base/utf8.def
INPUT /usr/share/texlive/texmf-dist/tex/latex/base/utf8.def
INPUT /usr/share/texlive/texmf-dist/tex/latex/base/t1enc.dfu
INPUT /usr/share/texlive/texmf-dist/tex/latex/base/t1enc.dfu
INPUT /usr/share/texlive/texmf-dist/tex/latex/base/ot1enc.dfu
INPUT /usr/share/texlive/texmf-dist/tex/latex/base/ot1enc.dfu
INPUT /usr/share/texlive/texmf-dist/tex/latex/base/omsenc.dfu
INPUT /usr/share/texlive/texmf-dist/tex/latex/base/omsenc.dfu
INPUT /usr/share/texlive/texmf-dist/tex/latex/base/fontenc.sty
INPUT /usr/share/texlive/texmf-dist/tex/latex/base/fontenc.sty
INPUT /usr/share/texlive/texmf-dist/tex/latex/base/t1enc.def
INPUT /usr/share/texlive/texmf-dist/tex/latex/base/t1enc.def
INPUT /usr/share/texlive/texmf-dist/fonts/tfm/jknappen/ec/ecrm1200.tfm
INPUT /usr/share/texlive/texmf-dist/tex/generic/pgf/frontendlayer/tikz/libraries/tikzlibraryshapes.symbols.code.tex
INPUT /usr/share/texlive/texmf-dist/tex/generic/pgf/frontendlayer/tikz/libraries/tikzlibraryshapes.symbols.code.tex
INPUT /usr/share/texlive/texmf-dist/tex/generic/pgf/libraries/shapes/pgflibraryshapes.symbols.code.tex
INPUT /usr/share/texlive/texmf-dist/tex/generic/pgf/libraries/shapes/pgflibraryshapes.symbols.code.tex
INPUT /usr/share/texlive/texmf-dist/tex/generic/pgf/frontendlayer/tikz/libraries/tikzlibraryshapes.geometric.code.tex
INPUT /usr/share/texlive/texmf-dist/tex/generic/pgf/frontendlayer/tikz/libraries/tikzlibraryshapes.geometric.code.tex
INPUT /usr/share/texlive/texmf-dist/tex/generic/pgf/libraries/shapes/pgflibraryshapes.geometric.code.tex
INPUT /usr/share/texlive/texmf-dist/tex/generic/pgf/libraries/shapes/pgflibraryshapes.geometric.code.tex
INPUT /usr/share/texlive/texmf-dist/tex/generic/pgf/frontendlayer/tikz/libraries/tikzlibraryshadows.code.tex
INPUT /usr/share/texlive/texmf-dist/tex/generic/pgf/frontendlayer/tikz/libraries/tikzlibraryshadows.code.tex
INPUT /usr/share/texlive/texmf-dist/tex/generic/pgf/frontendlayer/tikz/libraries/tikzlibraryfadings.code.tex
INPUT /usr/share/texlive/texmf-dist/tex/generic/pgf/frontendlayer/tikz/libraries/tikzlibraryfadings.code.tex
INPUT /usr/share/texlive/texmf-dist/tex/generic/pgf/libraries/pgflibraryfadings.code.tex
INPUT /usr/share/texlive/texmf-dist/tex/generic/pgf/libraries/pgflibraryfadings.code.tex
OUTPUT ../dist/main.pdf
INPUT /usr/share/texlive/texmf-dist/tex/generic/pgf/libraries/pgflibraryarrows.meta.code.tex
INPUT /usr/share/texlive/texmf-dist/tex/generic/pgf/libraries/pgflibraryarrows.meta.code.tex
INPUT /usr/share/texlive/texmf-dist/tex/generic/pgf/libraries/pgflibraryarrows.meta.code.tex
INPUT /usr/share/texlive/texmf-dist/tex/latex/flowchart/flowchart.sty
INPUT /usr/share/texlive/texmf-dist/tex/latex/flowchart/flowchart.sty
INPUT /usr/share/texlive/texmf-dist/tex/latex/makeshape/makeshape.sty
INPUT /usr/share/texlive/texmf-dist/tex/latex/makeshape/makeshape.sty
INPUT /usr/share/texlive/texmf-dist/tex/generic/pgf/libraries/pgflibraryintersections.code.tex
INPUT /usr/share/texlive/texmf-dist/tex/generic/pgf/libraries/pgflibraryintersections.code.tex
INPUT /usr/share/texlive/texmf-dist/tex/generic/pgf/libraries/pgflibraryfpu.code.tex
INPUT /usr/share/texlive/texmf-dist/tex/generic/pgf/libraries/pgflibraryfpu.code.tex
INPUT /usr/share/texlive/texmf-dist/tex/generic/pgf/frontendlayer/tikz/libraries/tikzlibraryshapes.code.tex
INPUT /usr/share/texlive/texmf-dist/tex/generic/pgf/frontendlayer/tikz/libraries/tikzlibraryshapes.code.tex
INPUT /usr/share/texlive/texmf-dist/tex/generic/pgf/frontendlayer/tikz/libraries/tikzlibraryshapes.misc.code.tex
INPUT /usr/share/texlive/texmf-dist/tex/generic/pgf/frontendlayer/tikz/libraries/tikzlibraryshapes.misc.code.tex
INPUT /usr/share/texlive/texmf-dist/tex/generic/pgf/libraries/shapes/pgflibraryshapes.misc.code.tex
INPUT /usr/share/texlive/texmf-dist/tex/generic/pgf/libraries/shapes/pgflibraryshapes.misc.code.tex
INPUT /usr/share/texlive/texmf-dist/tex/generic/pgf/frontendlayer/tikz/libraries/tikzlibraryshapes.arrows.code.tex
INPUT /usr/share/texlive/texmf-dist/tex/generic/pgf/frontendlayer/tikz/libraries/tikzlibraryshapes.arrows.code.tex
INPUT /usr/share/texlive/texmf-dist/tex/generic/pgf/libraries/shapes/pgflibraryshapes.arrows.code.tex
INPUT /usr/share/texlive/texmf-dist/tex/generic/pgf/libraries/shapes/pgflibraryshapes.arrows.code.tex
INPUT /usr/share/texlive/texmf-dist/tex/generic/pgf/frontendlayer/tikz/libraries/tikzlibraryshapes.callouts.code.tex
INPUT /usr/share/texlive/texmf-dist/tex/generic/pgf/frontendlayer/tikz/libraries/tikzlibraryshapes.callouts.code.tex
INPUT /usr/share/texlive/texmf-dist/tex/generic/pgf/libraries/shapes/pgflibraryshapes.callouts.code.tex
INPUT /usr/share/texlive/texmf-dist/tex/generic/pgf/libraries/shapes/pgflibraryshapes.callouts.code.tex
INPUT /usr/share/texlive/texmf-dist/tex/generic/pgf/frontendlayer/tikz/libraries/tikzlibraryshapes.multipart.code.tex
INPUT /usr/share/texlive/texmf-dist/tex/generic/pgf/frontendlayer/tikz/libraries/tikzlibraryshapes.multipart.code.tex
INPUT /usr/share/texlive/texmf-dist/tex/generic/pgf/libraries/shapes/pgflibraryshapes.multipart.code.tex
INPUT /usr/share/texlive/texmf-dist/tex/generic/pgf/libraries/shapes/pgflibraryshapes.multipart.code.tex
INPUT /usr/share/texlive/texmf-dist/tex/latex/hyperref/xr-hyper.sty
INPUT /usr/share/texlive/texmf-dist/tex/latex/hyperref/xr-hyper.sty
INPUT /usr/share/texlive/texmf-dist/tex/latex/hyperref/hyperref.sty
INPUT /usr/share/texlive/texmf-dist/tex/latex/hyperref/hyperref.sty
INPUT /usr/share/texlive/texmf-dist/tex/generic/oberdiek/hobsub-hyperref.sty
INPUT /usr/share/texlive/texmf-dist/tex/generic/oberdiek/hobsub-hyperref.sty
INPUT /usr/share/texlive/texmf-dist/tex/generic/oberdiek/hobsub-hyperref.sty
INPUT /usr/share/texlive/texmf-dist/tex/generic/oberdiek/hobsub-generic.sty
INPUT /usr/share/texlive/texmf-dist/tex/generic/oberdiek/hobsub-generic.sty
INPUT /usr/share/texlive/texmf-dist/tex/latex/oberdiek/auxhook.sty
INPUT /usr/share/texlive/texmf-dist/tex/latex/oberdiek/auxhook.sty
INPUT /usr/share/texlive/texmf-dist/tex/latex/oberdiek/kvoptions.sty
INPUT /usr/share/texlive/texmf-dist/tex/latex/oberdiek/kvoptions.sty
INPUT /usr/share/texlive/texmf-dist/tex/latex/hyperref/pd1enc.def
INPUT /usr/share/texlive/texmf-dist/tex/latex/hyperref/pd1enc.def
INPUT /usr/share/texlive/texmf-dist/tex/latex/latexconfig/hyperref.cfg
INPUT /usr/share/texlive/texmf-dist/tex/latex/latexconfig/hyperref.cfg
INPUT /usr/share/texlive/texmf-dist/tex/latex/url/url.sty
INPUT /usr/share/texlive/texmf-dist/tex/latex/url/url.sty
INPUT /usr/share/texlive/texmf-dist/tex/latex/hyperref/hpdftex.def
INPUT /usr/share/texlive/texmf-dist/tex/latex/hyperref/hpdftex.def
INPUT /usr/share/texlive/texmf-dist/tex/latex/oberdiek/rerunfilecheck.sty
INPUT /usr/share/texlive/texmf-dist/tex/latex/oberdiek/rerunfilecheck.sty
INPUT /usr/share/texlive/texmf-dist/tex/latex/lipsum/lipsum.sty
INPUT /usr/share/texlive/texmf-dist/tex/latex/lipsum/lipsum.sty
INPUT /usr/share/texlive/texmf-dist/tex/latex/tools/calc.sty
INPUT /usr/share/texlive/texmf-dist/tex/latex/tools/calc.sty
INPUT ../dist/main.aux
INPUT ../dist/main.aux
OUTPUT ../dist/main.aux
INPUT /usr/share/texlive/texmf-dist/tex/latex/psnfss/t1ptm.fd
INPUT /usr/share/texlive/texmf-dist/tex/latex/psnfss/t1ptm.fd
INPUT /usr/share/texlive/texmf-dist/fonts/tfm/adobe/times/ptmr8t.tfm
INPUT /usr/share/texlive/texmf-dist/tex/context/base/supp-pdf.mkii
INPUT /usr/share/texlive/texmf-dist/tex/context/base/supp-pdf.mkii
INPUT /usr/share/texlive/texmf-dist/tex/latex/oberdiek/epstopdf-base.sty
INPUT /usr/share/texlive/texmf-dist/tex/latex/oberdiek/epstopdf-base.sty
INPUT /usr/share/texlive/texmf-dist/tex/latex/oberdiek/grfext.sty
INPUT /usr/share/texlive/texmf-dist/tex/latex/oberdiek/grfext.sty
INPUT /usr/share/texlive/texmf-dist/tex/latex/latexconfig/epstopdf-sys.cfg
INPUT /usr/share/texlive/texmf-dist/tex/latex/latexconfig/epstopdf-sys.cfg
INPUT /usr/share/texlive/texmf-dist/tex/latex/caption/ltcaption.sty
INPUT /usr/share/texlive/texmf-dist/tex/latex/caption/ltcaption.sty
INPUT /usr/share/texlive/texmf-dist/tex/latex/hyperref/nameref.sty
INPUT /usr/share/texlive/texmf-dist/tex/latex/hyperref/nameref.sty
INPUT /usr/share/texlive/texmf-dist/tex/generic/oberdiek/gettitlestring.sty
INPUT /usr/share/texlive/texmf-dist/tex/generic/oberdiek/gettitlestring.sty
INPUT ../dist/main.out
INPUT ../dist/main.out
INPUT ../dist/main.out
INPUT ../dist/main.out
INPUT ../dist/main.out
INPUT ../dist/main.out
OUTPUT ../dist/main.out
INPUT ./chapters/title.tex
INPUT ./chapters/title.tex
INPUT ./resources/nust-logo.png
INPUT ./resources/nust-logo.png
INPUT ./resources/nust-logo.png
INPUT /usr/share/texlive/texmf-dist/fonts/tfm/adobe/times/ptmr8t.tfm
INPUT /usr/share/texlive/texmf-dist/fonts/tfm/adobe/times/ptmb8t.tfm
INPUT /usr/share/texlive/texmf-dist/fonts/vf/adobe/times/ptmb8t.vf
INPUT /usr/share/texlive/texmf-dist/fonts/tfm/adobe/times/ptmb8r.tfm
INPUT /var/lib/texmf/fonts/map/pdftex/updmap/pdftex.map
INPUT ./chapters/intro.tex
INPUT ./chapters/intro.tex
INPUT /usr/share/texlive/texmf-dist/fonts/tfm/adobe/times/ptmr8t.tfm
INPUT /usr/share/texlive/texmf-dist/fonts/tfm/adobe/times/ptmb8t.tfm
INPUT /usr/share/texlive/texmf-dist/fonts/vf/adobe/times/ptmb8t.vf
INPUT /usr/share/texlive/texmf-dist/fonts/tfm/adobe/times/ptmb8r.tfm
INPUT /usr/share/texlive/texmf-dist/fonts/vf/adobe/times/ptmr8t.vf
INPUT /usr/share/texlive/texmf-dist/fonts/tfm/adobe/times/ptmr8r.tfm
INPUT ./chapters/acknowledgement.tex
INPUT ./chapters/acknowledgement.tex
INPUT ./chapters/abbrev.tex
INPUT ./chapters/abbrev.tex
INPUT /usr/share/texlive/texmf-dist/tex/latex/psnfss/omsptm.fd
INPUT /usr/share/texlive/texmf-dist/tex/latex/psnfss/omsptm.fd
INPUT /usr/share/texlive/texmf-dist/fonts/tfm/public/cm/cmsy10.tfm
INPUT ../dist/main.toc
INPUT ../dist/main.toc
INPUT /usr/share/texlive/texmf-dist/fonts/tfm/adobe/times/ptmb8t.tfm
INPUT /usr/share/texlive/texmf-dist/fonts/tfm/public/cm/cmr8.tfm
INPUT /usr/share/texlive/texmf-dist/fonts/tfm/public/cm/cmr6.tfm
INPUT /usr/share/texlive/texmf-dist/fonts/tfm/public/cm/cmmi12.tfm
INPUT /usr/share/texlive/texmf-dist/fonts/tfm/public/cm/cmmi8.tfm
INPUT /usr/share/texlive/texmf-dist/fonts/tfm/public/cm/cmmi6.tfm
INPUT /usr/share/texlive/texmf-dist/fonts/tfm/public/cm/cmsy8.tfm
INPUT /usr/share/texlive/texmf-dist/fonts/tfm/public/cm/cmsy6.tfm
INPUT /usr/share/texlive/texmf-dist/fonts/tfm/public/cm/cmex10.tfm
INPUT /usr/share/texlive/texmf-dist/fonts/tfm/public/amsfonts/cmextra/cmex8.tfm
INPUT /usr/share/texlive/texmf-dist/fonts/tfm/public/amsfonts/cmextra/cmex7.tfm
INPUT /usr/share/texlive/texmf-dist/tex/latex/base/ulasy.fd
INPUT /usr/share/texlive/texmf-dist/tex/latex/base/ulasy.fd
INPUT /usr/share/texlive/texmf-dist/fonts/tfm/public/latex-fonts/lasy10.tfm
INPUT /usr/share/texlive/texmf-dist/fonts/tfm/public/latex-fonts/lasy8.tfm
INPUT /usr/share/texlive/texmf-dist/tex/latex/amsfonts/umsa.fd
INPUT /usr/share/texlive/texmf-dist/tex/latex/amsfonts/umsa.fd
INPUT /usr/share/texlive/texmf-dist/fonts/tfm/public/amsfonts/symbols/msam10.tfm
INPUT /usr/share/texlive/texmf-dist/fonts/tfm/public/amsfonts/symbols/msam10.tfm
INPUT /usr/share/texlive/texmf-dist/fonts/tfm/public/amsfonts/symbols/msam7.tfm
INPUT /usr/share/texlive/texmf-dist/tex/latex/amsfonts/umsb.fd
INPUT /usr/share/texlive/texmf-dist/tex/latex/amsfonts/umsb.fd
INPUT /usr/share/texlive/texmf-dist/fonts/tfm/public/amsfonts/symbols/msbm10.tfm
INPUT /usr/share/texlive/texmf-dist/fonts/tfm/public/amsfonts/symbols/msbm10.tfm
INPUT /usr/share/texlive/texmf-dist/fonts/tfm/public/amsfonts/symbols/msbm7.tfm
INPUT /usr/share/texlive/texmf-dist/tex/latex/wasysym/uwasy.fd
INPUT /usr/share/texlive/texmf-dist/tex/latex/wasysym/uwasy.fd
INPUT /usr/share/texlive/texmf-dist/fonts/tfm/public/wasy/wasy10.tfm
INPUT /usr/share/texlive/texmf-dist/fonts/tfm/public/wasy/wasy8.tfm
INPUT /usr/share/texlive/texmf-dist/fonts/tfm/public/wasy/wasy6.tfm
INPUT /usr/share/texlive/texmf-dist/fonts/vf/adobe/times/ptmb8t.vf
INPUT /usr/share/texlive/texmf-dist/fonts/tfm/adobe/times/ptmb8r.tfm
OUTPUT ../dist/main.toc
INPUT ../dist/main.lof
INPUT ../dist/main.lof
OUTPUT ../dist/main.lof
INPUT ./chapters/company_structure.tex
INPUT ./chapters/company_structure.tex
INPUT /usr/share/texlive/texmf-dist/fonts/tfm/adobe/times/ptmr8t.tfm
INPUT /usr/share/texlive/texmf-dist/fonts/tfm/adobe/times/ptmb8t.tfm
INPUT ./resources/afro_structure.png
INPUT ./resources/afro_structure.png
INPUT ./resources/afro_structure.png
INPUT /usr/share/texlive/texmf-dist/fonts/vf/adobe/times/ptmb8t.vf
INPUT /usr/share/texlive/texmf-dist/fonts/tfm/adobe/times/ptmb8r.tfm
INPUT ./chapters/organisation/index.tex
INPUT ./chapters/organisation/index.tex
INPUT ./chapters/organisation/product.tex
INPUT ./chapters/organisation/product.tex
INPUT ./resources/afropack-logo.png
INPUT ./resources/afropack-logo.png
INPUT ./resources/afropack-logo.png
INPUT ./resources/afro-product-domains.png
INPUT ./resources/afro-product-domains.png
INPUT ./resources/afro-product-domains.png
INPUT ./resources/afropack.png
INPUT ./resources/afropack.png
INPUT ./resources/afropack.png
INPUT ./chapters/organisation/services.tex
INPUT ./chapters/organisation/services.tex
INPUT ./resources/opframe.jpg
INPUT ./resources/opframe.jpg
INPUT ./resources/opframe.jpg
INPUT ./chapters/organisation/departments.tex
INPUT ./chapters/organisation/departments.tex
INPUT ./chapters/professionaldev.tex
INPUT ./chapters/professionaldev.tex
INPUT ./chapters/realisation.tex
INPUT ./chapters/realisation.tex
INPUT ./chapters/projects/index.tex
INPUT ./chapters/projects/index.tex
INPUT ./chapters/projects/parks-mobile.tex
INPUT ./chapters/projects/parks-mobile.tex
INPUT resources/parks-login.png
INPUT ./resources/parks-login.png
INPUT ./resources/parks-login.png
INPUT resources/parks-home.png
INPUT ./resources/parks-home.png
INPUT ./resources/parks-home.png
INPUT resources/parks-saved-receipts.png
INPUT ./resources/parks-saved-receipts.png
INPUT ./resources/parks-saved-receipts.png
INPUT resources/parks-receipt.png
INPUT ./resources/parks-receipt.png
INPUT ./resources/parks-receipt.png
INPUT resources/parks-payment.png
INPUT ./resources/parks-payment.png
INPUT ./resources/parks-payment.png
INPUT ./chapters/projects/afrosoft-website.tex
INPUT ./chapters/projects/afrosoft-website.tex
INPUT resources/afro-mobile.png
INPUT ./resources/afro-mobile.png
INPUT ./resources/afro-mobile.png
INPUT resources/afro-contact.png
INPUT ./resources/afro-contact.png
INPUT ./resources/afro-contact.png
INPUT resources/afro-desktop.png
INPUT ./resources/afro-desktop.png
INPUT ./resources/afro-desktop.png
INPUT resources/afro-blog.png
INPUT ./resources/afro-blog.png
INPUT ./resources/afro-blog.png
INPUT resources/afro-about.png
INPUT ./resources/afro-about.png
INPUT ./resources/afro-about.png
INPUT ./chapters/projects/instapay.tex
INPUT ./chapters/projects/instapay.tex
INPUT resources/insta-home.png
INPUT ./resources/insta-home.png
INPUT ./resources/insta-home.png
INPUT resources/insta-main.png
INPUT ./resources/insta-main.png
INPUT ./resources/insta-main.png
INPUT resources/insta-air.png
INPUT ./resources/insta-air.png
INPUT ./resources/insta-air.png
INPUT resources/insta-pay.png
INPUT ./resources/insta-pay.png
INPUT ./resources/insta-pay.png
INPUT ./chapters/projects/gitlab.tex
INPUT ./chapters/projects/gitlab.tex
INPUT ./chapters/projects/agropal.tex
INPUT ./chapters/projects/agropal.tex
INPUT resources/agro-home.png
INPUT ./resources/agro-home.png
INPUT ./resources/agro-home.png
INPUT resources/agro-topics.png
INPUT ./resources/agro-topics.png
INPUT ./resources/agro-topics.png
INPUT resources/agro-products.png
INPUT ./resources/agro-products.png
INPUT ./resources/agro-products.png
INPUT resources/agro-chat.png
INPUT ./resources/agro-chat.png
INPUT ./resources/agro-chat.png
INPUT resources/agro-search.png
INPUT ./resources/agro-search.png
INPUT ./resources/agro-search.png
INPUT ./chapters/projects/afropay.tex
INPUT ./chapters/projects/afropay.tex
INPUT resources/afropay-trans.png
INPUT ./resources/afropay-trans.png
INPUT ./resources/afropay-trans.png
INPUT resources/afropay-home.png
INPUT ./resources/afropay-home.png
INPUT ./resources/afropay-home.png
INPUT ./chapters/recomendations.tex
INPUT ./chapters/recomendations.tex
INPUT ./chapters/conclusion.tex
INPUT ./chapters/conclusion.tex
INPUT ../dist/main.aux
INPUT ../dist/main.out
INPUT ../dist/main.out
INPUT /usr/share/texlive/texmf-dist/fonts/enc/dvips/base/8r.enc
INPUT /usr/share/texlive/texmf-dist/fonts/type1/public/amsfonts/cm/cmsy10.pfb
INPUT /usr/share/texlive/texmf-dist/fonts/type1/urw/times/utmb8a.pfb
INPUT /usr/share/texlive/texmf-dist/fonts/type1/urw/times/utmr8a.pfb
