# Fdb version 3
["pdflatex"] 1526636135 "/home/mikeyny/Documents/projects/report/src/main.tex" "../dist/main.pdf" "main" 1526636233
  "../dist/main.aux" 1526636141 11161 47006b47f1ea1400e137d7973152fde8 ""
  "../dist/main.lof" 1526636141 2758 5793789254939ccb91f60eadfbbc8bba ""
  "../dist/main.out" 1526636141 4816 5bfdebe1ebebd1c0fb74bb576d386667 ""
  "../dist/main.toc" 1526636141 5937 02eb73f1663a89a78058ffd1806cc207 ""
  "/etc/texmf/web2c/texmf.cnf" 1525344314 1101 af7716885e081ab43982cab7b4672c1a ""
  "/home/mikeyny/Documents/projects/report/src/main.tex" 1526570146 3268 6bb7b1a2dc085ef96419d44f2dc5607c ""
  "/usr/share/texlive/texmf-dist/fonts/enc/dvips/base/8r.enc" 1165713224 4850 80dc9bab7f31fb78a000ccfed0e27cab ""
  "/usr/share/texlive/texmf-dist/fonts/map/fontname/texfonts.map" 1272929888 3287 e6b82fe08f5336d4d5ebc73fb1152e87 ""
  "/usr/share/texlive/texmf-dist/fonts/tfm/adobe/times/ptmb8r.tfm" 1136768653 4524 6bce29db5bc272ba5f332261583fee9c ""
  "/usr/share/texlive/texmf-dist/fonts/tfm/adobe/times/ptmb8t.tfm" 1136768653 6880 f19b8995b61c334d78fc734065f6b4d4 ""
  "/usr/share/texlive/texmf-dist/fonts/tfm/adobe/times/ptmr8r.tfm" 1136768653 4408 25b74d011a4c66b7f212c0cc3c90061b ""
  "/usr/share/texlive/texmf-dist/fonts/tfm/adobe/times/ptmr8t.tfm" 1136768653 6672 e3ab9e37e925f3045c9005e6d1473d56 ""
  "/usr/share/texlive/texmf-dist/fonts/tfm/jknappen/ec/ecrm1200.tfm" 1136768653 3584 f80ddd985bd00e29e9a6047ebd9d4781 ""
  "/usr/share/texlive/texmf-dist/fonts/tfm/public/amsfonts/cmextra/cmex7.tfm" 1246382020 1004 54797486969f23fa377b128694d548df ""
  "/usr/share/texlive/texmf-dist/fonts/tfm/public/amsfonts/cmextra/cmex8.tfm" 1246382020 988 bdf658c3bfc2d96d3c8b02cfc1c94c20 ""
  "/usr/share/texlive/texmf-dist/fonts/tfm/public/amsfonts/symbols/msam10.tfm" 1246382020 916 f87d7c45f9c908e672703b83b72241a3 ""
  "/usr/share/texlive/texmf-dist/fonts/tfm/public/amsfonts/symbols/msam7.tfm" 1246382020 928 2dc8d444221b7a635bb58038579b861a ""
  "/usr/share/texlive/texmf-dist/fonts/tfm/public/amsfonts/symbols/msbm10.tfm" 1246382020 908 2921f8a10601f252058503cc6570e581 ""
  "/usr/share/texlive/texmf-dist/fonts/tfm/public/amsfonts/symbols/msbm7.tfm" 1246382020 940 228d6584342e91276bf566bcf9716b83 ""
  "/usr/share/texlive/texmf-dist/fonts/tfm/public/cm/cmex10.tfm" 1136768653 992 662f679a0b3d2d53c1b94050fdaa3f50 ""
  "/usr/share/texlive/texmf-dist/fonts/tfm/public/cm/cmmi12.tfm" 1136768653 1524 4414a8315f39513458b80dfc63bff03a ""
  "/usr/share/texlive/texmf-dist/fonts/tfm/public/cm/cmmi6.tfm" 1136768653 1512 f21f83efb36853c0b70002322c1ab3ad ""
  "/usr/share/texlive/texmf-dist/fonts/tfm/public/cm/cmmi8.tfm" 1136768653 1520 eccf95517727cb11801f4f1aee3a21b4 ""
  "/usr/share/texlive/texmf-dist/fonts/tfm/public/cm/cmr12.tfm" 1136768653 1288 655e228510b4c2a1abe905c368440826 ""
  "/usr/share/texlive/texmf-dist/fonts/tfm/public/cm/cmr6.tfm" 1136768653 1300 b62933e007d01cfd073f79b963c01526 ""
  "/usr/share/texlive/texmf-dist/fonts/tfm/public/cm/cmr8.tfm" 1136768653 1292 21c1c5bfeaebccffdb478fd231a0997d ""
  "/usr/share/texlive/texmf-dist/fonts/tfm/public/cm/cmsy10.tfm" 1136768653 1124 6c73e740cf17375f03eec0ee63599741 ""
  "/usr/share/texlive/texmf-dist/fonts/tfm/public/cm/cmsy6.tfm" 1136768653 1116 933a60c408fc0a863a92debe84b2d294 ""
  "/usr/share/texlive/texmf-dist/fonts/tfm/public/cm/cmsy8.tfm" 1136768653 1120 8b7d695260f3cff42e636090a8002094 ""
  "/usr/share/texlive/texmf-dist/fonts/tfm/public/latex-fonts/lasy10.tfm" 1136768653 520 82a3d37183f34b6eb363a161dfc002c2 ""
  "/usr/share/texlive/texmf-dist/fonts/tfm/public/latex-fonts/lasy6.tfm" 1136768653 520 4889cce2180234b97cad636b6039c722 ""
  "/usr/share/texlive/texmf-dist/fonts/tfm/public/latex-fonts/lasy8.tfm" 1136768653 520 7bb3abb160b19e0ed6ac404bb59052b7 ""
  "/usr/share/texlive/texmf-dist/fonts/tfm/public/wasy/wasy10.tfm" 1418683037 884 cb2a5aeb15d2c2fa75963576ff22778d ""
  "/usr/share/texlive/texmf-dist/fonts/tfm/public/wasy/wasy6.tfm" 1418683037 892 ce84734a3ce970a47ce7803be6d89b0f ""
  "/usr/share/texlive/texmf-dist/fonts/tfm/public/wasy/wasy8.tfm" 1418683037 884 df491db60492d6d4b55157a114e1a6bd ""
  "/usr/share/texlive/texmf-dist/fonts/type1/public/amsfonts/cm/cmsy10.pfb" 1248133631 32569 5e5ddc8df908dea60932f3c484a54c0d ""
  "/usr/share/texlive/texmf-dist/fonts/type1/urw/times/utmb8a.pfb" 1136849748 44729 811d6c62865936705a31c797a1d5dada ""
  "/usr/share/texlive/texmf-dist/fonts/type1/urw/times/utmr8a.pfb" 1136849748 46026 6dab18b61c907687b520c72847215a68 ""
  "/usr/share/texlive/texmf-dist/fonts/vf/adobe/times/ptmb8t.vf" 1136768653 2340 df9c920cc5688ebbf16a93f45ce7bdd3 ""
  "/usr/share/texlive/texmf-dist/fonts/vf/adobe/times/ptmr8t.vf" 1136768653 2348 91706c542228501c410c266421fbe30c ""
  "/usr/share/texlive/texmf-dist/tex/context/base/supp-pdf.mkii" 1337017135 71627 94eb9990bed73c364d7f53f960cc8c5b ""
  "/usr/share/texlive/texmf-dist/tex/generic/ifxetex/ifxetex.sty" 1284331290 1458 43ab4710dc82f3edeabecd0d099626b2 ""
  "/usr/share/texlive/texmf-dist/tex/generic/oberdiek/gettitlestring.sty" 1303254447 8237 52810bdb4db2270e717422560a104aea ""
  "/usr/share/texlive/texmf-dist/tex/generic/oberdiek/hobsub-generic.sty" 1338332114 189108 8b3553a56c83ff61acecb36b75d817e2 ""
  "/usr/share/texlive/texmf-dist/tex/generic/oberdiek/hobsub-hyperref.sty" 1338332114 70752 45fa392800e07da61fa13446ad46b34d ""
  "/usr/share/texlive/texmf-dist/tex/generic/oberdiek/ifpdf.sty" 1303254447 7140 ece2cc23d9f20e1f53975ac167f42d3e ""
  "/usr/share/texlive/texmf-dist/tex/generic/oberdiek/ifvtex.sty" 1335995445 6797 68c89f65e01894df882dd523d3fc0a8f ""
  "/usr/share/texlive/texmf-dist/tex/generic/oberdiek/infwarerr.sty" 1335995445 8253 3bdedc8409aa5d290a2339be6f09af03 ""
  "/usr/share/texlive/texmf-dist/tex/generic/oberdiek/ltxcmds.sty" 1335995445 18425 775b341047ce304520cc7c11ca41392e ""
  "/usr/share/texlive/texmf-dist/tex/generic/pgf/basiclayer/pgfcore.code.tex" 1288312291 1006 b103be0bfc8c1682ff1fa9760697a329 ""
  "/usr/share/texlive/texmf-dist/tex/generic/pgf/basiclayer/pgfcorearrows.code.tex" 1439074469 43226 167a99346bfe2676e3efcdde2d81fe45 ""
  "/usr/share/texlive/texmf-dist/tex/generic/pgf/basiclayer/pgfcoreexternal.code.tex" 1439074469 19302 4f089dc590e71f7331e6d5b5ea85273b ""
  "/usr/share/texlive/texmf-dist/tex/generic/pgf/basiclayer/pgfcoregraphicstate.code.tex" 1439074469 6068 edae1e768a7d8d8f0f00e953d2b0153e ""
  "/usr/share/texlive/texmf-dist/tex/generic/pgf/basiclayer/pgfcoreimage.code.tex" 1393459310 7041 a891ad72049e17c4e366c40ca37b0ccb ""
  "/usr/share/texlive/texmf-dist/tex/generic/pgf/basiclayer/pgfcorelayers.code.tex" 1393459310 4625 40c07e9f6f2f7c674704b3f2055560ce ""
  "/usr/share/texlive/texmf-dist/tex/generic/pgf/basiclayer/pgfcoreobjects.code.tex" 1203877327 2631 7eefa6cdbefd8d4e2bad7262cf1094cd ""
  "/usr/share/texlive/texmf-dist/tex/generic/pgf/basiclayer/pgfcorepathconstruct.code.tex" 1393459310 43477 81143b33d9ebafdeead07ede13372427 ""
  "/usr/share/texlive/texmf-dist/tex/generic/pgf/basiclayer/pgfcorepathprocessing.code.tex" 1393459310 17436 8d99d4113be311daf23deff86991ee7d ""
  "/usr/share/texlive/texmf-dist/tex/generic/pgf/basiclayer/pgfcorepathusage.code.tex" 1439074469 20772 c57e34db4aa7b1da013169d04b743eac ""
  "/usr/share/texlive/texmf-dist/tex/generic/pgf/basiclayer/pgfcorepatterns.code.tex" 1393459310 9641 711f0edc22c180a5caf168b6e8970057 ""
  "/usr/share/texlive/texmf-dist/tex/generic/pgf/basiclayer/pgfcorepoints.code.tex" 1393459310 34516 658a71478d21df554bce9d9cd436203a ""
  "/usr/share/texlive/texmf-dist/tex/generic/pgf/basiclayer/pgfcorequick.code.tex" 1288312291 3052 e5672c657232fd63b0a9853b0746297c ""
  "/usr/share/texlive/texmf-dist/tex/generic/pgf/basiclayer/pgfcorescopes.code.tex" 1439074469 16669 4ec6e40088fc6de6334b443fe2dc59f0 ""
  "/usr/share/texlive/texmf-dist/tex/generic/pgf/basiclayer/pgfcoreshade.code.tex" 1393459310 21541 4cd19f8ff7dd74d5aa7d803a6397af84 ""
  "/usr/share/texlive/texmf-dist/tex/generic/pgf/basiclayer/pgfcoretransformations.code.tex" 1439074469 19998 d77fef95c7369827753d17fd11be19c4 ""
  "/usr/share/texlive/texmf-dist/tex/generic/pgf/basiclayer/pgfcoretransparency.code.tex" 1393459310 8943 2e2495b057f8f0035b5568394d489963 ""
  "/usr/share/texlive/texmf-dist/tex/generic/pgf/frontendlayer/tikz/libraries/tikzlibraryfadings.code.tex" 1288312291 1298 83d7449064b0f0f089f1898a244b6d16 ""
  "/usr/share/texlive/texmf-dist/tex/generic/pgf/frontendlayer/tikz/libraries/tikzlibraryshadows.code.tex" 1203727794 3001 d54bab2f783098ed890fabbeb437b04f ""
  "/usr/share/texlive/texmf-dist/tex/generic/pgf/frontendlayer/tikz/libraries/tikzlibraryshapes.arrows.code.tex" 1203727794 527 a8d3e34fbab3dc317cf9b06aa5cdc2e4 ""
  "/usr/share/texlive/texmf-dist/tex/generic/pgf/frontendlayer/tikz/libraries/tikzlibraryshapes.callouts.code.tex" 1203727794 1158 d6338189706f4587fbc6175c0fb41f17 ""
  "/usr/share/texlive/texmf-dist/tex/generic/pgf/frontendlayer/tikz/libraries/tikzlibraryshapes.code.tex" 1203727794 607 40dc15d3efcf10f095866a94bd544bc1 ""
  "/usr/share/texlive/texmf-dist/tex/generic/pgf/frontendlayer/tikz/libraries/tikzlibraryshapes.geometric.code.tex" 1203727794 457 ffe9f8b9d108b5f729fd86c78c63589a ""
  "/usr/share/texlive/texmf-dist/tex/generic/pgf/frontendlayer/tikz/libraries/tikzlibraryshapes.misc.code.tex" 1203727794 447 e87a0add254801e837fa6c18f61f340f ""
  "/usr/share/texlive/texmf-dist/tex/generic/pgf/frontendlayer/tikz/libraries/tikzlibraryshapes.multipart.code.tex" 1203727794 1004 86af66805a9d0b62bd41ea0796a64d50 ""
  "/usr/share/texlive/texmf-dist/tex/generic/pgf/frontendlayer/tikz/libraries/tikzlibraryshapes.symbols.code.tex" 1203727794 590 7e11000a24bbee9ae2a4cd0e5d88e58c ""
  "/usr/share/texlive/texmf-dist/tex/generic/pgf/frontendlayer/tikz/libraries/tikzlibrarytopaths.code.tex" 1288312291 11599 d694704a88e2f9007c996d3a6a4d629c ""
  "/usr/share/texlive/texmf-dist/tex/generic/pgf/frontendlayer/tikz/tikz.code.tex" 1439074469 176652 1c2926908e2b356d454795c35385d580 ""
  "/usr/share/texlive/texmf-dist/tex/generic/pgf/libraries/pgflibraryarrows.meta.code.tex" 1439074469 58967 21f38abaa0fb7112dd851bc45ee45849 ""
  "/usr/share/texlive/texmf-dist/tex/generic/pgf/libraries/pgflibraryfadings.code.tex" 1203727794 2647 defb4a59c2a1d36127a1ac6eebb4a5c1 ""
  "/usr/share/texlive/texmf-dist/tex/generic/pgf/libraries/pgflibraryfpu.code.tex" 1439074469 71137 c32d35e60bbb16d313e5b57ffc7e7f4a ""
  "/usr/share/texlive/texmf-dist/tex/generic/pgf/libraries/pgflibraryintersections.code.tex" 1439074469 33007 c277d64044b7e771d3aaed2c131547d2 ""
  "/usr/share/texlive/texmf-dist/tex/generic/pgf/libraries/pgflibraryplothandlers.code.tex" 1393459310 32969 dbcfd5a7de6a0f7255c333ef60287d59 ""
  "/usr/share/texlive/texmf-dist/tex/generic/pgf/libraries/shapes/pgflibraryshapes.arrows.code.tex" 1288312291 69900 cbd9fafb795a493fb2a3b73713994b78 ""
  "/usr/share/texlive/texmf-dist/tex/generic/pgf/libraries/shapes/pgflibraryshapes.callouts.code.tex" 1393459310 28333 0189c4cfb5044e700e6ba65a32295f01 ""
  "/usr/share/texlive/texmf-dist/tex/generic/pgf/libraries/shapes/pgflibraryshapes.geometric.code.tex" 1288312291 132566 291d42c3b23fdb5c47e51b36a5fea0c4 ""
  "/usr/share/texlive/texmf-dist/tex/generic/pgf/libraries/shapes/pgflibraryshapes.misc.code.tex" 1393459310 37737 ea6cb0b4e615f6048f20ee7153b3cc78 ""
  "/usr/share/texlive/texmf-dist/tex/generic/pgf/libraries/shapes/pgflibraryshapes.multipart.code.tex" 1288312291 49891 e74f8181c57d9359c941b6bee48fccc2 ""
  "/usr/share/texlive/texmf-dist/tex/generic/pgf/libraries/shapes/pgflibraryshapes.symbols.code.tex" 1393459310 90791 0f3e73cae9286c96d9fcb2161cc223bc ""
  "/usr/share/texlive/texmf-dist/tex/generic/pgf/math/pgfmath.code.tex" 1393459310 454 9e9e7c99f4da4f41698be21eaef4938e ""
  "/usr/share/texlive/texmf-dist/tex/generic/pgf/math/pgfmathcalc.code.tex" 1393459310 13416 940ea6971d7a65dc440d3479939c66ae ""
  "/usr/share/texlive/texmf-dist/tex/generic/pgf/math/pgfmathfloat.code.tex" 1439074469 94097 62ac62cda46eb715560dc27f9ed6e8b1 ""
  "/usr/share/texlive/texmf-dist/tex/generic/pgf/math/pgfmathfunctions.base.code.tex" 1393459310 9375 5adc70f722abd29fc250d59e0694b548 ""
  "/usr/share/texlive/texmf-dist/tex/generic/pgf/math/pgfmathfunctions.basic.code.tex" 1439074469 22069 7c21c42b15718ce922f36235be360490 ""
  "/usr/share/texlive/texmf-dist/tex/generic/pgf/math/pgfmathfunctions.code.tex" 1439074469 8210 a7be5b52ef3d2c087b7dc3d52898b67e ""
  "/usr/share/texlive/texmf-dist/tex/generic/pgf/math/pgfmathfunctions.comparison.code.tex" 1288312291 3534 c7f28fbac13616513e513efe93b8569b ""
  "/usr/share/texlive/texmf-dist/tex/generic/pgf/math/pgfmathfunctions.integerarithmetics.code.tex" 1393459310 3167 7c9394e79aac27db96a92f9b2792b858 ""
  "/usr/share/texlive/texmf-dist/tex/generic/pgf/math/pgfmathfunctions.misc.code.tex" 1439074469 9289 261407875b9dbb0194691c3eb893610f ""
  "/usr/share/texlive/texmf-dist/tex/generic/pgf/math/pgfmathfunctions.random.code.tex" 1439074469 7078 946ddf4a7e57219b6afdbad98eb6731b ""
  "/usr/share/texlive/texmf-dist/tex/generic/pgf/math/pgfmathfunctions.round.code.tex" 1288312291 2688 139c6abc86761a6190c2f4bef5d752be ""
  "/usr/share/texlive/texmf-dist/tex/generic/pgf/math/pgfmathfunctions.trigonometric.code.tex" 1439074469 92284 dcf023dbaa84e6c50e11c2f79fe8cfa6 ""
  "/usr/share/texlive/texmf-dist/tex/generic/pgf/math/pgfmathparser.code.tex" 1439074469 35430 046e15fbb65e74d8f0e7945f99741fdb ""
  "/usr/share/texlive/texmf-dist/tex/generic/pgf/math/pgfmathutil.code.tex" 1393459310 7099 f44d505bae6c7c2b933cdd63441db4b9 ""
  "/usr/share/texlive/texmf-dist/tex/generic/pgf/modules/pgfmodulematrix.code.tex" 1393459310 20934 2328bd2e04520e1ab077ac4ee13b8935 ""
  "/usr/share/texlive/texmf-dist/tex/generic/pgf/modules/pgfmoduleplot.code.tex" 1439074469 16203 83cbe1220e389eeee283a6168f9a567b ""
  "/usr/share/texlive/texmf-dist/tex/generic/pgf/modules/pgfmoduleshapes.code.tex" 1439074469 42906 d54376d96df1a2ae2d33fb722236d8e9 ""
  "/usr/share/texlive/texmf-dist/tex/generic/pgf/systemlayer/pgf.cfg" 1288312291 978 15af626ebd3d4d790aac19170dac04f2 ""
  "/usr/share/texlive/texmf-dist/tex/generic/pgf/systemlayer/pgfsys-common-pdf.def" 1393459310 5437 d91f93ed61ecdc57e119849b2d784a0b ""
  "/usr/share/texlive/texmf-dist/tex/generic/pgf/systemlayer/pgfsys-pdftex.def" 1439074469 13507 809d848d9262638e1b1705a68a73c566 ""
  "/usr/share/texlive/texmf-dist/tex/generic/pgf/systemlayer/pgfsys.code.tex" 1439074469 35113 2ccc50c1c9573e4bac9230d030f9c67c ""
  "/usr/share/texlive/texmf-dist/tex/generic/pgf/systemlayer/pgfsysprotocol.code.tex" 1203877327 1983 b5994ebbcee17f1ba3d29bb1bd696fcf ""
  "/usr/share/texlive/texmf-dist/tex/generic/pgf/systemlayer/pgfsyssoftpath.code.tex" 1393459310 7881 d459d6057e13d10ce7a227ae44b7295e ""
  "/usr/share/texlive/texmf-dist/tex/generic/pgf/utilities/pgffor.code.tex" 1393459310 22211 d696ef78c12269178882d218b2cf191d ""
  "/usr/share/texlive/texmf-dist/tex/generic/pgf/utilities/pgfkeys.code.tex" 1393459310 36194 e194ef4e0b396b531a3891feb4b1cc22 ""
  "/usr/share/texlive/texmf-dist/tex/generic/pgf/utilities/pgfkeysfiltered.code.tex" 1393459310 33377 af391d6ad1bfcbe2278e191f48e43ba8 ""
  "/usr/share/texlive/texmf-dist/tex/generic/pgf/utilities/pgfrcs.code.tex" 1440888734 2536 a3b0529d815a2759ba157b56610a6377 ""
  "/usr/share/texlive/texmf-dist/tex/generic/pgf/utilities/pgfutil-common-lists.tex" 1393459310 6833 114eda2cf1d348e0e7e477a1a4dc1941 ""
  "/usr/share/texlive/texmf-dist/tex/generic/pgf/utilities/pgfutil-common.tex" 1439074469 16501 ab0135765e27b6b8dae047831fe84818 ""
  "/usr/share/texlive/texmf-dist/tex/generic/pgf/utilities/pgfutil-latex.def" 1439074469 5544 294baac9629ba59f675b1f2027ad7136 ""
  "/usr/share/texlive/texmf-dist/tex/generic/ulem/ulem.sty" 1338588421 23756 854c01b779030ff5b2aad88ba7a119f2 ""
  "/usr/share/texlive/texmf-dist/tex/generic/xkeyval/xkeyval.tex" 1417732693 19231 26434a5656c684f5ffb1f26f98006baa ""
  "/usr/share/texlive/texmf-dist/tex/generic/xkeyval/xkvutils.tex" 1403829539 7677 6f5ce7c1124cad7ec57d05b2562bd8fe ""
  "/usr/share/texlive/texmf-dist/tex/latex/adjustbox/adjcalc.sty" 1337209790 5413 28ccf87dc7aa0cb642dca714a24a0e0e ""
  "/usr/share/texlive/texmf-dist/tex/latex/adjustbox/adjustbox.sty" 1337644619 34406 e1a62300781a9f8a5ca0a38d16b34d67 ""
  "/usr/share/texlive/texmf-dist/tex/latex/adjustbox/tc-pdftex.def" 1337209790 1442 51243195f4fdf731a12f15ee33772346 ""
  "/usr/share/texlive/texmf-dist/tex/latex/adjustbox/trimclip.sty" 1337209790 7112 f0440fa8b74253e1bc8b4f4227a9df9d ""
  "/usr/share/texlive/texmf-dist/tex/latex/amsfonts/amsfonts.sty" 1359763108 5949 3f3fd50a8cc94c3d4cbf4fc66cd3df1c ""
  "/usr/share/texlive/texmf-dist/tex/latex/amsfonts/amssymb.sty" 1359763108 13829 94730e64147574077f8ecfea9bb69af4 ""
  "/usr/share/texlive/texmf-dist/tex/latex/amsfonts/umsa.fd" 1359763108 961 6518c6525a34feb5e8250ffa91731cff ""
  "/usr/share/texlive/texmf-dist/tex/latex/amsfonts/umsb.fd" 1359763108 961 d02606146ba5601b5645f987c92e6193 ""
  "/usr/share/texlive/texmf-dist/tex/latex/amsmath/amsbsy.sty" 1456875012 2210 5c54ab129b848a5071554186d0168766 ""
  "/usr/share/texlive/texmf-dist/tex/latex/amsmath/amsgen.sty" 1456875012 4160 c115536cf8d4ff25aa8c1c9bc4ecb79a ""
  "/usr/share/texlive/texmf-dist/tex/latex/amsmath/amsmath.sty" 1457045335 81928 0154df1c78a3ed620f585b10d4169d63 ""
  "/usr/share/texlive/texmf-dist/tex/latex/amsmath/amsopn.sty" 1456875012 3867 f0be3ac1db1ca657e6117507a2a8d69b ""
  "/usr/share/texlive/texmf-dist/tex/latex/amsmath/amstext.sty" 1456875012 2431 fe3078ec12fc30287f568596f8e0b948 ""
  "/usr/share/texlive/texmf-dist/tex/latex/appendix/appendix.sty" 1252539595 8526 d0d9b5e2dd0c996c69c3bd05eb25b943 ""
  "/usr/share/texlive/texmf-dist/tex/latex/base/article.cls" 1454284088 20708 39fdf9e2fb65617012fa7382a351f485 ""
  "/usr/share/texlive/texmf-dist/tex/latex/base/fontenc.sty" 1454284088 4572 634fcdf7e9df867d6d54f84638930408 ""
  "/usr/share/texlive/texmf-dist/tex/latex/base/inputenc.sty" 1454284088 5619 b1e63522e111972696a4db609d2b915f ""
  "/usr/share/texlive/texmf-dist/tex/latex/base/latexsym.sty" 1454284088 2854 d9a09e80ec53a1710adc74c0e8300370 ""
  "/usr/share/texlive/texmf-dist/tex/latex/base/omsenc.dfu" 1454284088 2006 ed35f065eb949f203d1b6acd2bc1dcb8 ""
  "/usr/share/texlive/texmf-dist/tex/latex/base/ot1enc.dfu" 1454284088 3183 76313d3584eba6cfdb7421aa6c69c2dd ""
  "/usr/share/texlive/texmf-dist/tex/latex/base/size12.clo" 1454284088 9190 cb916da25b8d5468e215e1d622855ceb ""
  "/usr/share/texlive/texmf-dist/tex/latex/base/t1enc.def" 1454284088 9927 925418b4e40d02671b4728df100ec5ef ""
  "/usr/share/texlive/texmf-dist/tex/latex/base/t1enc.dfu" 1454284088 10900 d4e94223e6330199a3b8e8abe87fe6e1 ""
  "/usr/share/texlive/texmf-dist/tex/latex/base/ulasy.fd" 1454284088 2020 d5c6fbbe41610194529ecfc3e463c559 ""
  "/usr/share/texlive/texmf-dist/tex/latex/base/utf8.def" 1454284088 7786 ea3c60942da10fcdcdb0bcbd1671de4e ""
  "/usr/share/texlive/texmf-dist/tex/latex/caption/caption.sty" 1456094605 66233 8b81cfab95a1f8fc2f0f6c89415b087a ""
  "/usr/share/texlive/texmf-dist/tex/latex/caption/caption3.sty" 1456094605 64437 7aae26f62358cb5be7cae9d865fab5b8 ""
  "/usr/share/texlive/texmf-dist/tex/latex/caption/ltcaption.sty" 1442533747 7257 dd37a106002acb997b6c947cf18f297e ""
  "/usr/share/texlive/texmf-dist/tex/latex/changepage/changepage.sty" 1256071977 4523 a9044e2dc40e764dac60d2acda7ae919 ""
  "/usr/share/texlive/texmf-dist/tex/latex/collectbox/collectbox.sty" 1337644648 9116 495d44b5a3e7be0c46c5d1f053f457f0 ""
  "/usr/share/texlive/texmf-dist/tex/latex/colortbl/colortbl.sty" 1329267615 10607 9635c8e2bffccf182429bfdea9b665a5 ""
  "/usr/share/texlive/texmf-dist/tex/latex/enumitem/enumitem.sty" 1317339792 42666 6fa770e3485520a6a5f2ea7d259c8f8d ""
  "/usr/share/texlive/texmf-dist/tex/latex/fancyhdr/fancyhdr.sty" 1160175134 20521 e5d13d98d57bd53d4fed3aa61bd29c86 ""
  "/usr/share/texlive/texmf-dist/tex/latex/float/float.sty" 1137110151 6749 16d2656a1984957e674b149555f1ea1d ""
  "/usr/share/texlive/texmf-dist/tex/latex/flowchart/flowchart.sty" 1426886952 8977 e8de97a01526e119e8864593c6eb60b7 ""
  "/usr/share/texlive/texmf-dist/tex/latex/geometry/geometry.sty" 1284422013 40502 e003406220954b0716679d7928aedd8a ""
  "/usr/share/texlive/texmf-dist/tex/latex/graphics/graphics.sty" 1454284088 14337 b66dff1d80f6c21e70858a2b3c2d327d ""
  "/usr/share/texlive/texmf-dist/tex/latex/graphics/graphicx.sty" 1428932888 8125 557ab9f1bfa80d369fb45a914aa8a3b4 ""
  "/usr/share/texlive/texmf-dist/tex/latex/graphics/keyval.sty" 1428932888 2594 d18d5e19aa8239cf867fa670c556d2e9 ""
  "/usr/share/texlive/texmf-dist/tex/latex/graphics/trig.sty" 1454284088 3980 0a268fbfda01e381fa95821ab13b6aee ""
  "/usr/share/texlive/texmf-dist/tex/latex/hyperref/hpdftex.def" 1352416072 51837 247bd8424b3835ef78c236dc1e0b4aef ""
  "/usr/share/texlive/texmf-dist/tex/latex/hyperref/hyperref.sty" 1352416072 231792 5fc9dc7dd667e773a766ecc63bba7f4b ""
  "/usr/share/texlive/texmf-dist/tex/latex/hyperref/nameref.sty" 1351899753 12847 25b617d63258c4f72870c883493a3cf8 ""
  "/usr/share/texlive/texmf-dist/tex/latex/hyperref/pd1enc.def" 1352416072 14005 155ac8fad2e5dd7c2cdd130fabd96633 ""
  "/usr/share/texlive/texmf-dist/tex/latex/hyperref/xr-hyper.sty" 1137110216 3830 153be674a7f07fdeece3f59a55cbf193 ""
  "/usr/share/texlive/texmf-dist/tex/latex/ifoddpage/ifoddpage.sty" 1316197439 1363 ad3d0d4483ff3ebcb79acd04d371b213 ""
  "/usr/share/texlive/texmf-dist/tex/latex/latexconfig/color.cfg" 1254097189 802 7b8c8d72c24d795ed7720e4dfd29bff3 ""
  "/usr/share/texlive/texmf-dist/tex/latex/latexconfig/epstopdf-sys.cfg" 1279039959 678 4792914a8f45be57bb98413425e4c7af ""
  "/usr/share/texlive/texmf-dist/tex/latex/latexconfig/graphics.cfg" 1278958963 3563 d35e897cae3b8c6848f6677b73370b54 ""
  "/usr/share/texlive/texmf-dist/tex/latex/latexconfig/hyperref.cfg" 1254097189 235 6031e5765137be07eed51a510b2b8fb7 ""
  "/usr/share/texlive/texmf-dist/tex/latex/lipsum/lipsum.sty" 1406996843 103491 f3a8d28ba533bcdb24167b15de14ff22 ""
  "/usr/share/texlive/texmf-dist/tex/latex/makecell/makecell.sty" 1249334690 15773 2dd7dde1ec1c2a3d0c85bc3b273e04d8 ""
  "/usr/share/texlive/texmf-dist/tex/latex/makeshape/makeshape.sty" 1359413748 4948 d0aae0d49231d75ff25cc24a6f9771f3 ""
  "/usr/share/texlive/texmf-dist/tex/latex/ms/everysel.sty" 1320274502 4623 936bfb87af7b91b6496a2317f80db16b ""
  "/usr/share/texlive/texmf-dist/tex/latex/ms/everyshi.sty" 1177890616 3878 6aa7c08ff2621006e0603349e40a30a8 ""
  "/usr/share/texlive/texmf-dist/tex/latex/ms/ragged2e.sty" 1244852698 9938 95cd4dc3edfd2c1a9e8f3f4cc43db1ce ""
  "/usr/share/texlive/texmf-dist/tex/latex/multirow/multirow.sty" 1137110401 7374 f7c1f13fc632dd5c9b220a247d233082 ""
  "/usr/share/texlive/texmf-dist/tex/latex/oberdiek/auxhook.sty" 1303254447 3834 707ef09f31d7d2ea47ba89974755dfe0 ""
  "/usr/share/texlive/texmf-dist/tex/latex/oberdiek/epstopdf-base.sty" 1303254447 12029 04d7fdf76e0464c23b5aa3a727952d7c ""
  "/usr/share/texlive/texmf-dist/tex/latex/oberdiek/grfext.sty" 1335995445 7075 bd0c34fbf1ae8fd1debd2a554e41b2d5 ""
  "/usr/share/texlive/texmf-dist/tex/latex/oberdiek/kvoptions.sty" 1335995445 22417 c74ff4af6a1aa2b65d1924020edbbe11 ""
  "/usr/share/texlive/texmf-dist/tex/latex/oberdiek/rerunfilecheck.sty" 1303254447 9581 1158efc648bc09d5064db5703c882159 ""
  "/usr/share/texlive/texmf-dist/tex/latex/pdftex-def/pdftex.def" 1306616590 55368 3c8a0d99822330f2dfabc0dfb09ce897 ""
  "/usr/share/texlive/texmf-dist/tex/latex/pgf/basiclayer/pgf.sty" 1439074469 1197 8a80cdde14696a9198f1793a55dcf332 ""
  "/usr/share/texlive/texmf-dist/tex/latex/pgf/basiclayer/pgfcore.sty" 1288312291 410 5bf12ea7330e5f12c445332a4fe9a263 ""
  "/usr/share/texlive/texmf-dist/tex/latex/pgf/compatibility/pgfcomp-version-0-65.sty" 1203877327 21115 facf03b7dbe5ea2f5f1dce1ac84b5d05 ""
  "/usr/share/texlive/texmf-dist/tex/latex/pgf/compatibility/pgfcomp-version-1-18.sty" 1203727794 1091 d9163d29def82ee90370c8a63667742c ""
  "/usr/share/texlive/texmf-dist/tex/latex/pgf/frontendlayer/tikz.sty" 1203877327 339 592cf35cba3d400082b8a9a5d0199d70 ""
  "/usr/share/texlive/texmf-dist/tex/latex/pgf/math/pgfmath.sty" 1393459310 306 0796eafca5e159e6ec2167a6d22d81b1 ""
  "/usr/share/texlive/texmf-dist/tex/latex/pgf/systemlayer/pgfsys.sty" 1393459310 443 0b2e781830192df35c0fd357cf13e26e ""
  "/usr/share/texlive/texmf-dist/tex/latex/pgf/utilities/pgffor.sty" 1393459310 348 8927fde343487e003b01a4c2ca34073b ""
  "/usr/share/texlive/texmf-dist/tex/latex/pgf/utilities/pgfkeys.sty" 1203727794 274 4cad6e665cc93ac2ac979039a94fa1e1 ""
  "/usr/share/texlive/texmf-dist/tex/latex/pgf/utilities/pgfrcs.sty" 1203877327 325 2bcd023400636339210573e2b3ee298b ""
  "/usr/share/texlive/texmf-dist/tex/latex/psnfss/omsptm.fd" 1137110629 576 95c2c0baea9c719a4be29a3d4122498b ""
  "/usr/share/texlive/texmf-dist/tex/latex/psnfss/t1ptm.fd" 1137110629 774 61d7da1e9f9e74989b196d147e623736 ""
  "/usr/share/texlive/texmf-dist/tex/latex/psnfss/times.sty" 1156702453 857 6c716f26c5eadfb81029fcd6ce2d45e6 ""
  "/usr/share/texlive/texmf-dist/tex/latex/setspace/setspace.sty" 1324344192 22913 a27d7908fc6f0385466454a966a316eb ""
  "/usr/share/texlive/texmf-dist/tex/latex/subfig/subfig.sty" 1158586182 21369 9ef165ca6df8815c92e693146a376c92 ""
  "/usr/share/texlive/texmf-dist/tex/latex/tabto-ltx/tabto.sty" 1369619410 7427 69ff8bbb5117c468ee0daad39cba1399 ""
  "/usr/share/texlive/texmf-dist/tex/latex/tools/array.sty" 1454284088 13285 f3f53a6ffbd47ead3faa66a5e2be19b7 ""
  "/usr/share/texlive/texmf-dist/tex/latex/tools/calc.sty" 1454284088 10214 d03d065f799d54f6b7e9b175f8d84279 ""
  "/usr/share/texlive/texmf-dist/tex/latex/tools/hhline.sty" 1454284088 3720 ccc88f1d91232db0c82c2bda044fd77d ""
  "/usr/share/texlive/texmf-dist/tex/latex/tools/longtable.sty" 1454284088 12083 80916157594a8e4354985aaefae4f367 ""
  "/usr/share/texlive/texmf-dist/tex/latex/tools/multicol.sty" 1454284088 30713 fa1ba57b1c4b4b37d548b809e66c85ba ""
  "/usr/share/texlive/texmf-dist/tex/latex/url/url.sty" 1388531844 12796 8edb7d69a20b857904dd0ea757c14ec9 ""
  "/usr/share/texlive/texmf-dist/tex/latex/varwidth/varwidth.sty" 1238697683 10894 d359a13923460b2a73d4312d613554c8 ""
  "/usr/share/texlive/texmf-dist/tex/latex/wasysym/uwasy.fd" 1137111081 2127 de456b4fb7b20e6651c727c9fdc94803 ""
  "/usr/share/texlive/texmf-dist/tex/latex/wasysym/wasysym.sty" 1137111081 10611 eca9e56dd071530be0c56f0b968bbdb6 ""
  "/usr/share/texlive/texmf-dist/tex/latex/wrapfig/wrapfig.sty" 1137111090 26220 3701aebf80ccdef248c0c20dd062fea9 ""
  "/usr/share/texlive/texmf-dist/tex/latex/xcolor/svgnam.def" 1169481954 4620 468295cf46978ca3a0d4af0c469edc7e ""
  "/usr/share/texlive/texmf-dist/tex/latex/xcolor/xcolor.sty" 1169481954 55224 a43bab84e0ac5e6efcaf9a98bde73a94 ""
  "/usr/share/texlive/texmf-dist/tex/latex/xkeyval/xkeyval.sty" 1417732693 4962 9c1069474ff71dbc47d5006555e352d3 ""
  "/usr/share/texlive/texmf-dist/web2c/texmf.cnf" 1503343927 31343 93828589fb0cea665e553ee5a17ad2d4 ""
  "/usr/share/texmf/web2c/texmf.cnf" 1503343927 31343 93828589fb0cea665e553ee5a17ad2d4 ""
  "/var/lib/texmf/fonts/map/pdftex/updmap/pdftex.map" 1525344515 1863403 f3ff9a4253bcb5fb9a9baaf0c572cb01 ""
  "/var/lib/texmf/web2c/pdftex/pdflatex.fmt" 1525344612 3854694 3eb8f92d54ced5c81cb5b0b439935094 ""
  "chapters/abbrev.tex" 1526635901 736 cca41666105243f745880a5d5ce30f4b ""
  "chapters/acknowledgement.tex" 1526561612 1218 9acded8af292113f5227046b95f4a309 ""
  "chapters/company_structure.tex" 1526564359 3986 accc0b771c77d2002d1f82926755ea45 ""
  "chapters/conclusion.tex" 1526331032 938 9b54c51923ab1a788c1c927c4c238187 ""
  "chapters/intro.tex" 1526635396 1776 f20f29f1a512307737dda4458452eb7d ""
  "chapters/organisation/departments.tex" 1526635290 3647 5098c0768d185e9183a0b869bf4a373f ""
  "chapters/organisation/index.tex" 1526418010 191 fd9bc4b1007f32bbfb11d7c47be57528 ""
  "chapters/organisation/product.tex" 1526636014 3549 2f70a6a137732d97398a3b07c59d38d2 ""
  "chapters/organisation/services.tex" 1526636074 3046 32446ce022275cf587cc6146e81ba626 ""
  "chapters/professionaldev.tex" 1526634774 7340 115cf515046cb746e0689eefa7f7aef2 ""
  "chapters/projects/afropay.tex" 1526635803 2441 8c4a0e955d1af01f1064bf34fa5ba895 ""
  "chapters/projects/afrosoft-website.tex" 1526635873 3863 c6ae67e070fbaffe34b1d20049cdbe31 ""
  "chapters/projects/agropal.tex" 1526635768 6116 914fd8f5261395a7638009f33f2ffde9 ""
  "chapters/projects/gitlab.tex" 1526564462 3914 68969a88d65eb62b886becdfed5a4c13 ""
  "chapters/projects/index.tex" 1526558834 331 27faf957d7b42076cbfed2a338c0c5de ""
  "chapters/projects/instapay.tex" 1526634541 5627 13d6a2aee39bbf6998c4a3240af18e3d ""
  "chapters/projects/parks-mobile.tex" 1526635106 6065 fdc1c6ce7fd679ba4d54dc086215c257 ""
  "chapters/realisation.tex" 1526636135 2446 97dcc9fdd5bc2edb11dc030d12340374 ""
  "chapters/recomendations.tex" 1526635609 5640 1dbe248504b7cbb854d20bdaa8ab6cf6 ""
  "chapters/title.tex" 1526565206 1093 8154d4d521e83b33c849fb349a135881 ""
  "main.tex" 1526570146 3268 6bb7b1a2dc085ef96419d44f2dc5607c ""
  "resources/afro-about.png" 1526557920 971643 c37c6529ea80bcfed7520b0ab66b399c ""
  "resources/afro-blog.png" 1526557741 2314053 621ae5d4e767f37a4ba5a36311734405 ""
  "resources/afro-contact.png" 1526557985 100578 f24bd8cbfe7605282bfc094ed85aa6c9 ""
  "resources/afro-desktop.png" 1526560012 1871357 95a159fc12dd2f2bcb6f7b3c181725ed ""
  "resources/afro-mobile.png" 1526557655 338167 1e0395508c4771f7c546a4801c09317c ""
  "resources/afro-product-domains.png" 1526413871 98363 92c3332777e4a3a8e23edd806f1dc731 ""
  "resources/afro_structure.png" 1525370541 78207 8c402eff4a1900331e0a43885f2f9561 ""
  "resources/afropack-logo.png" 1526413965 120192 81f0b27813f90a699cdbf4ad856eccc8 ""
  "resources/afropack.png" 1526411555 95094 fadac5b72f850b4152afebbf5baee3e1 ""
  "resources/afropay-home.png" 1526631259 137546 1f76195eea54c1b06c9be6f23ab429b4 ""
  "resources/afropay-trans.png" 1526631578 164542 9683ac386b7fc3cab0504b0a43bdeb8d ""
  "resources/agro-chat.png" 1526557274 95347 1ed4798d1b14d3f79f780af363d2bcf3 ""
  "resources/agro-home.png" 1526557143 96868 e300bdf8e23550967915ff1e90e09e79 ""
  "resources/agro-products.png" 1526557180 194911 c32811912fa9d34857e4ef474133bdb9 ""
  "resources/agro-search.png" 1526557327 80863 243d6ec2bb5117d6850473cd3d10f415 ""
  "resources/agro-topics.png" 1526557220 88655 25121d14e63cd32ac1b667dffb5b21cf ""
  "resources/insta-air.png" 1526557056 184395 78bdf168a2f4c15c0e390a1b62625d38 ""
  "resources/insta-home.png" 1526557026 566759 fad977b151afd04f168ba4dc178ddacc ""
  "resources/insta-main.png" 1526557034 382993 4c93bad8743282fdee39e71fda0f7694 ""
  "resources/insta-pay.png" 1526557110 179497 45c787a6418f9836f012e5fa0dfa41cd ""
  "resources/nust-logo.png" 1526502524 18413 1fc240450ac8324464cab3b470d84836 ""
  "resources/opframe.jpg" 1526415776 99653 e139db2be090cb4ae9b9e3a1a784e30b ""
  "resources/parks-home.png" 1526574431 370060 c47bcb435a995da7598a157228b5efb7 ""
  "resources/parks-login.png" 1526574426 1277765 4f5c194b0318405d2a759c7c8a8afb2c ""
  "resources/parks-payment.png" 1526574428 44816 3d613c5fc9c3f22f3e7a37fa96a47a15 ""
  "resources/parks-receipt.png" 1526574439 141796 b42a556dab24b4ebbcc455a64c2b7c78 ""
  "resources/parks-saved-receipts.png" 1526574437 71558 de13392e2e656d6d91845f429c0f3c98 ""
  (generated)
  "../dist/main.lof"
  "../dist/main.pdf"
  "../dist/main.aux"
  "../dist/main.toc"
  "../dist/main.out"
  "../dist/main.log"
