\relax 
\providecommand\hyper@newdestlabel[2]{}
\providecommand\HyperFirstAtBeginDocument{\AtBeginDocument}
\HyperFirstAtBeginDocument{\ifx\hyper@anchor\@undefined
\global\let\oldcontentsline\contentsline
\gdef\contentsline#1#2#3#4{\oldcontentsline{#1}{#2}{#3}}
\global\let\oldnewlabel\newlabel
\gdef\newlabel#1#2{\newlabelxx{#1}#2}
\gdef\newlabelxx#1#2#3#4#5#6{\oldnewlabel{#1}{{#2}{#3}}}
\AtEndDocument{\ifx\hyper@anchor\@undefined
\let\contentsline\oldcontentsline
\let\newlabel\oldnewlabel
\fi}
\fi}
\global\let\hyper@last\relax 
\gdef\HyperFirstAtBeginDocument#1{#1}
\providecommand\HyField@AuxAddToFields[1]{}
\providecommand\HyField@AuxAddToCoFields[2]{}
\providecommand \oddpage@label [2]{}
\newlabel{sec:abstract}{{}{i}{Abstract}{section*.2}{}}
\@writefile{toc}{\contentsline {section}{\hbox to\@tempdima {\hfil } Abstract}{i}{section*.2}}
\@writefile{toc}{\contentsline {section}{\hbox to\@tempdima {\hfil } Acknowledgement}{ii}{section*.3}}
\@writefile{toc}{\contentsline {section}{\hbox to\@tempdima {\hfil } Acronyms and Abbreviations}{iii}{section*.4}}
\@writefile{toc}{\contentsline {section}{\numberline {1}Introduction}{1}{section.1}}
\newlabel{sec:intro}{{1}{1}{Introduction}{section.1}{}}
\@writefile{toc}{\contentsline {subsection}{\numberline {1.1}Organisational Background}{1}{subsection.1.1}}
\@writefile{toc}{\contentsline {subsection}{\numberline {1.2}Organisational Structure}{1}{subsection.1.2}}
\@writefile{lof}{\contentsline {figure}{\numberline {1}{\ignorespaces Afrosoft Organisational Chart\relax }}{1}{figure.caption.7}}
\@writefile{toc}{\contentsline {subsection}{\numberline {1.3}Organisational values}{2}{subsection.1.3}}
\@writefile{toc}{\contentsline {subsection}{\numberline {1.4}Organisational Vision}{3}{subsection.1.4}}
\@writefile{toc}{\contentsline {subsection}{\numberline {1.5}Organisational Motto}{3}{subsection.1.5}}
\@writefile{toc}{\contentsline {section}{\numberline {2}Nature of Industry}{4}{section.2}}
\@writefile{toc}{\contentsline {subsection}{\numberline {2.1}Products}{4}{subsection.2.1}}
\@writefile{lof}{\contentsline {figure}{\numberline {2}{\ignorespaces Afropack Logo\relax }}{4}{figure.caption.8}}
\@writefile{lof}{\contentsline {figure}{\numberline {3}{\ignorespaces Afropack Product Domains\relax }}{4}{figure.caption.9}}
\@writefile{lof}{\contentsline {figure}{\numberline {4}{\ignorespaces Afropack Products\relax }}{5}{figure.caption.10}}
\@writefile{toc}{\contentsline {subsection}{\numberline {2.2}Services}{7}{subsection.2.2}}
\@writefile{lof}{\contentsline {figure}{\numberline {5}{\ignorespaces Afrosoft Services\relax }}{7}{figure.caption.11}}
\@writefile{toc}{\contentsline {subsubsection}{\numberline {2.2.1}Software Development}{7}{subsubsection.2.2.1}}
\@writefile{toc}{\contentsline {subsubsection}{\numberline {2.2.2}Transaction Switching}{7}{subsubsection.2.2.2}}
\@writefile{toc}{\contentsline {subsubsection}{\numberline {2.2.3}Resource Outsourcing}{8}{subsubsection.2.2.3}}
\@writefile{toc}{\contentsline {subsubsection}{\numberline {2.2.4}Value Added Services (VAS)}{8}{subsubsection.2.2.4}}
\@writefile{toc}{\contentsline {subsection}{\numberline {2.3}Key Departments in the SDLC}{9}{subsection.2.3}}
\@writefile{toc}{\contentsline {section}{\numberline {3}Professional and Personal Development}{11}{section.3}}
\@writefile{toc}{\contentsline {subsection}{\numberline {3.1}Professional Development}{11}{subsection.3.1}}
\@writefile{toc}{\contentsline {subsubsection}{\numberline {3.1.1}Android App Development}{11}{subsubsection.3.1.1}}
\@writefile{toc}{\contentsline {subsubsection}{\numberline {3.1.2}Web Development}{11}{subsubsection.3.1.2}}
\@writefile{toc}{\contentsline {subsubsection}{\numberline {3.1.3}Version Control}{12}{subsubsection.3.1.3}}
\@writefile{toc}{\contentsline {subsection}{\numberline {3.2}Personal Development}{13}{subsection.3.2}}
\@writefile{toc}{\contentsline {subsubsection}{\numberline {3.2.1}Team Work}{13}{subsubsection.3.2.1}}
\@writefile{toc}{\contentsline {subsubsection}{\numberline {3.2.2}Design}{13}{subsubsection.3.2.2}}
\@writefile{toc}{\contentsline {subsubsection}{\numberline {3.2.3}Presentation and Communication Skills}{13}{subsubsection.3.2.3}}
\@writefile{toc}{\contentsline {subsubsection}{\numberline {3.2.4}Maintaining legacy systems}{14}{subsubsection.3.2.4}}
\@writefile{toc}{\contentsline {subsubsection}{\numberline {3.2.5}Conflict Resolution between personal and organizational objectives}{14}{subsubsection.3.2.5}}
\@writefile{toc}{\contentsline {subsection}{\numberline {3.3}Expectations and Industrial Reality}{14}{subsection.3.3}}
\@writefile{toc}{\contentsline {subsubsection}{\numberline {3.3.1}Expectations}{14}{subsubsection.3.3.1}}
\@writefile{toc}{\contentsline {subsubsection}{\numberline {3.3.2}Reality}{15}{subsubsection.3.3.2}}
\@writefile{toc}{\contentsline {section}{\numberline {4}Projects UnderTaken}{16}{section.4}}
\@writefile{toc}{\contentsline {subsection}{\numberline {4.1}Parks Mobile Receipting}{16}{subsection.4.1}}
\@writefile{toc}{\contentsline {subsubsection}{\numberline {4.1.1}Introduction}{16}{subsubsection.4.1.1}}
\@writefile{toc}{\contentsline {subsubsection}{\numberline {4.1.2}Description of Duties}{16}{subsubsection.4.1.2}}
\@writefile{toc}{\contentsline {subsubsection}{\numberline {4.1.3}Skills and Lessons Learnt}{18}{subsubsection.4.1.3}}
\@writefile{toc}{\contentsline {subsubsection}{\numberline {4.1.4}Project Images}{18}{subsubsection.4.1.4}}
\@writefile{lof}{\contentsline {figure}{\numberline {6}{\ignorespaces Parks Mobile Login Page\relax }}{18}{figure.caption.12}}
\@writefile{lof}{\contentsline {figure}{\numberline {7}{\ignorespaces Parks Homepage\relax }}{18}{figure.caption.12}}
\@writefile{lof}{\contentsline {figure}{\numberline {8}{\ignorespaces Parks Saved Receipts\relax }}{19}{figure.caption.13}}
\@writefile{lof}{\contentsline {figure}{\numberline {9}{\ignorespaces Parks Sample Receipt\relax }}{19}{figure.caption.13}}
\@writefile{lof}{\contentsline {figure}{\numberline {10}{\ignorespaces Parks Payment Page\relax }}{19}{figure.caption.14}}
\@writefile{toc}{\contentsline {subsection}{\numberline {4.2}Afrosoft Website}{20}{subsection.4.2}}
\@writefile{toc}{\contentsline {subsubsection}{\numberline {4.2.1}Introduction}{20}{subsubsection.4.2.1}}
\@writefile{toc}{\contentsline {subsubsection}{\numberline {4.2.2}Description of Duties}{20}{subsubsection.4.2.2}}
\@writefile{toc}{\contentsline {subsubsection}{\numberline {4.2.3}Skills and Lessons Learnt}{21}{subsubsection.4.2.3}}
\@writefile{toc}{\contentsline {subsubsection}{\numberline {4.2.4}Project Images}{22}{subsubsection.4.2.4}}
\@writefile{lof}{\contentsline {figure}{\numberline {11}{\ignorespaces Afrosoft Homepage on mobile\relax }}{22}{figure.caption.15}}
\@writefile{lof}{\contentsline {figure}{\numberline {12}{\ignorespaces Afrosoft Website Contact Page\relax }}{22}{figure.caption.15}}
\@writefile{lof}{\contentsline {figure}{\numberline {13}{\ignorespaces Afrosoft Website\relax }}{23}{figure.caption.16}}
\@writefile{lof}{\contentsline {figure}{\numberline {14}{\ignorespaces Website blog\relax }}{24}{figure.caption.17}}
\@writefile{lof}{\contentsline {figure}{\numberline {15}{\ignorespaces Website about page\relax }}{25}{figure.caption.18}}
\@writefile{toc}{\contentsline {subsection}{\numberline {4.3}Instapay}{26}{subsection.4.3}}
\@writefile{toc}{\contentsline {subsubsection}{\numberline {4.3.1}Introduction}{26}{subsubsection.4.3.1}}
\@writefile{toc}{\contentsline {subsubsection}{\numberline {4.3.2}Description of Duties}{26}{subsubsection.4.3.2}}
\@writefile{toc}{\contentsline {subsubsection}{\numberline {4.3.3}Skills and Lessons Learnt}{28}{subsubsection.4.3.3}}
\@writefile{toc}{\contentsline {subsubsection}{\numberline {4.3.4}Project Images}{28}{subsubsection.4.3.4}}
\@writefile{lof}{\contentsline {figure}{\numberline {16}{\ignorespaces Instapay Launcher Page\relax }}{28}{figure.caption.19}}
\@writefile{lof}{\contentsline {figure}{\numberline {17}{\ignorespaces Instapay Home Page\relax }}{28}{figure.caption.19}}
\@writefile{lof}{\contentsline {figure}{\numberline {18}{\ignorespaces Airtime Purchase Screen\relax }}{29}{figure.caption.20}}
\@writefile{lof}{\contentsline {figure}{\numberline {19}{\ignorespaces Instapay Payment Screen\relax }}{29}{figure.caption.20}}
\@writefile{toc}{\contentsline {subsection}{\numberline {4.4}Gitlab}{30}{subsection.4.4}}
\@writefile{toc}{\contentsline {subsubsection}{\numberline {4.4.1}Introduction}{30}{subsubsection.4.4.1}}
\@writefile{toc}{\contentsline {subsubsection}{\numberline {4.4.2}Description of Duties}{30}{subsubsection.4.4.2}}
\@writefile{toc}{\contentsline {subsubsection}{\numberline {4.4.3}Skills and Lessons Learnt}{31}{subsubsection.4.4.3}}
\@writefile{toc}{\contentsline {subsection}{\numberline {4.5}Agropal}{32}{subsection.4.5}}
\@writefile{toc}{\contentsline {subsubsection}{\numberline {4.5.1}Introduction}{32}{subsubsection.4.5.1}}
\@writefile{toc}{\contentsline {subsubsection}{\numberline {4.5.2}Description of Duties}{32}{subsubsection.4.5.2}}
\@writefile{toc}{\contentsline {subsubsection}{\numberline {4.5.3}Skills and Lessons Learnt}{33}{subsubsection.4.5.3}}
\@writefile{toc}{\contentsline {subsubsection}{\numberline {4.5.4}Project Images}{34}{subsubsection.4.5.4}}
\@writefile{lof}{\contentsline {figure}{\numberline {20}{\ignorespaces Agropal Home Page\relax }}{34}{figure.caption.21}}
\@writefile{lof}{\contentsline {figure}{\numberline {21}{\ignorespaces agropal Topics Page\relax }}{34}{figure.caption.21}}
\@writefile{lof}{\contentsline {figure}{\numberline {22}{\ignorespaces Agropal Products Page\relax }}{35}{figure.caption.22}}
\@writefile{lof}{\contentsline {figure}{\numberline {23}{\ignorespaces Agropal Expert Chat\relax }}{35}{figure.caption.22}}
\@writefile{lof}{\contentsline {figure}{\numberline {24}{\ignorespaces Agropal Online Search\relax }}{35}{figure.caption.23}}
\@writefile{toc}{\contentsline {subsection}{\numberline {4.6}Afropay Gateway}{36}{subsection.4.6}}
\@writefile{toc}{\contentsline {subsubsection}{\numberline {4.6.1}Introduction}{36}{subsubsection.4.6.1}}
\@writefile{toc}{\contentsline {subsubsection}{\numberline {4.6.2}Description of Duties}{36}{subsubsection.4.6.2}}
\@writefile{toc}{\contentsline {subsubsection}{\numberline {4.6.3}Skills and Lessons Learnt}{36}{subsubsection.4.6.3}}
\@writefile{toc}{\contentsline {subsubsection}{\numberline {4.6.4}Project Images}{38}{subsubsection.4.6.4}}
\@writefile{lof}{\contentsline {figure}{\numberline {25}{\ignorespaces Afropay Dashboard\relax }}{38}{figure.caption.24}}
\@writefile{lof}{\contentsline {figure}{\numberline {26}{\ignorespaces Afropay Homepage\relax }}{39}{figure.caption.25}}
\@writefile{toc}{\contentsline {section}{\numberline {5}Recommendations}{40}{section.5}}
\@writefile{toc}{\contentsline {subsection}{\numberline {5.1}Challenges Faced}{40}{subsection.5.1}}
\@writefile{toc}{\contentsline {subsection}{\numberline {5.2}Recommendations to the Organisation}{41}{subsection.5.2}}
\@writefile{toc}{\contentsline {subsection}{\numberline {5.3}Recommendations to the University}{42}{subsection.5.3}}
\@writefile{toc}{\contentsline {section}{\numberline {6}Conclusion}{43}{section.6}}
